﻿focal_ID,pop,pred_trt,soc_trt,tutor_pop,tutor_ID,tutor_assay_date,sigmoid_tutor,swing_tutor,sneak_tutor,thrust_tutor,sigmoid_tutor_males,tutor_notes
AHF2-1G3P4Y.2.5,AH,Y,same,AH,AH-T-4,1/16/2021,5,1,14,0,0,"this was before we had categories for thrusts at the focal, other male, etc"
AHF2-1O3P.1.2,AH,N,same,AH,AH-T-3,1/16/2021,2,2,6,0,0,
AHF2-1O3P.1.1,AH,N,same,AH,AH-T-2,1/16/2021,13,6,0,0,0,
AHF2-1O3P.1.3,AH,N,dif,AL,AL-T-7,1/16/2021,7,1,11,0,0,
AHF2-1O3P.1.4,AH,N,dif,AL,AL-T-8,1/16/2021,2,0,2,0,0,
AHF2-1Y3O.1.3,AH,Y,same,AH,AH-T-5,1/21/2021,10,1,31,0,0,
AHF2-1Y3O.1.4,AH,N,same,AH,AH-T-6,1/21/2021,5,1,12,0,0,
AHF2-1Y2P.2.2,AH,Y,dif,AL,AL-T-10,1/22/2021,6,2,18,0,2,
AHF2-1G4G.1.5,AH,Y,dif,AL,AL-T-11,1/25/2021,9,2,29,0,0,
AHF2-1G4G.1.6,AH,Y,same,AH,AH-T-7,1/25/2021,5,6,33,0,0,
ALF2-1P4P.1.3,AL,Y,dif,AH,AH-T-8,1/28/2021,7,1,8,0,0,
AHF2-1P3G.1.3,AH,Y,same,AH,AH-T-9,1/28/2021,10,3,6,0,0,
AHF2-1G4O.1.1,AH,N,dif,AL,AL-T-1,2/5/2021,1,1,5,3,0,
AHF2-1Y3Y.1.2,AH,N,dif,AL,AL-T-4,2/5/2021,9,7,7,0,0,
ALF2-1G3P.2.1,AL,N,same,AL,AL-T-5,2/5/2021,1,2,7,0,0,
AHF2-1Y3Y.1.1,AH,N,dif,AL,AL-T-2,2/5/2021,4,4,1,0,1,
ALF2-1O3Y.1.1,AL,Y,dif,AH,AH-T-10,2/5/2021,8,2,3,0,0,
AHF2-1G4O.1.2,AH,N,dif,AL,AL-T-3,2/5/2021,0,2,3,0,0,
AHF2-1Y2G.2.1,AH,Y,same,AH,AH-T-11,2/8/2021,1,7,6,0,0,
ALF2-1P4O.1.2,AL,N,dif,AH,AH-T-1,2/11/2021,6,3,12,0,0,
ALF2-1P4O.1.3,AL,Y,same,AL,AL-T-12,2/11/2021,7,3,3,10,0,
AHF2-1P3G.2.2,AH,N,dif,AL,AL-T-15,2/18/2021,4,8,12,0,0,
AHF2-1P3G.2.1,AH,N,same,AH,AH-T-3,2/18/2021,1,2,10,0,0,
AHF2-1P3G.2.4,AH,Y,dif,AL,AL-T-14,2/18/2021,7,6,5,0,0,
AHF2-1Y3O.2.2,AH,N,dif,AL,AL-T-7,2/20/2021,12,5,10,0,0,
AHF2-1Y3O.2.1,AH,N,same,AH,AH-T-2,2/20/2021,10,5,1,0,0,
AHF2-1Y3O.2.4,AH,Y,same,AH,AH-T-4,2/20/2021,2,0,10,0,0,
AHF2-1Y3O.2.5,AH,Y,dif,AL,AL-T-16,2/20/2021,11,3,19,0,0,
AHF2-1Y2P.3.1,AH,N,same,AH,AH-T-6,2/24/2021,2,2,6,0,0,
AHF2-1G3G.3.1,AH,Y,dif,AL,AL-T-10,2/24/2021,5,3,3,0,0,
ALF2-1G3Y.1.1,AL,N,same,AL,AL-T-8,2/25/2021,3,0,4,0,0,
ALF2-1P4P.2.2,AL,N,dif,AH,AH-T-12,2/25/2021,4,6,1,0,0,
ALF2-1G3Y.1.2,AL,Y,dif,AH,AH-T-7,2/25/2021,1,0,23,0,0,
AHF2-1G4G.2.1,AH,N,same,AH,AH-T-13,2/26/2021,22,5,5,0,0,
AHF2-1G4G.2.4,AH,Y,dif,AL,AL-T-17,2/26/2021,14,6,14,0,0,
AHF2-1G4G.2.3,AH,Y,same,AH,AH-T-5,2/26/2021,5,4,8,0,0,
AHF2-1G4P.2.1,AH,N,same,AH,AH-T-14,3/1/2021,10,3,18,0,0,
AHF2-1G4P.2.3,AH,Y,same,AH,AH-T-9,3/1/2021,1,4,9,0,0,
ALF2-3G4G.1.5,AL,Y,dif,AH,AH-T-8,3/8/2021,8,1,11,0,0,
ALF2-3G4G.1.4,AL,Y,same,AL,AL-T-18,3/8/2021,10,3,4,0,0,one male sick
ALF2-3G4G.1.1,AL,N,dif,AH,AH-T-15,3/8/2021,11,0,8,1,0,
ALF2-1O2G.1.2,AL,N,same,AL,AL-T-1,3/9/2021,7,1,8,0,0,
ALF2-1O2G.1.3,AL,Y,dif,AH,AH-T-10,3/9/2021,2,0,0,0,0,
ALF2-1O3Y.2.1,AL,N,same,AL,AL-T-4,3/11/2021,1,5,10,0,0,
AHF2-1O3P.3.2,AH,N,dif,AL,AL-T-3,3/11/2021,1,1,6,0,0,
AHF2-1G4G.3.1,AH,N,dif,AL,AL-T-19,3/20/2021,1,1,3,2,0,
AHF2-1G4G.3.3,AH,N,same,AH,AH-T-1,3/20/2021,8,6,3,0,0,
AHF2-1Y2P.4.1,AH,N,dif,AL,AL-T-5,3/20/2021,0,0,0,0,0,
ALF2-1P4P.3.1,AL,N,same,AL,AL-T-15,3/23/2021,1,1,0,0,0,
ALF2-1O2O.1.1,AL,N,dif,AH,AH-T-3,3/23/2021,0,0,5,0,0,
ALF2-1P4P.3.3,AL,Y,same,AL,AL-T-12,3/23/2021,3,3,4,0,0,
ALF2-1O2O.1.5,AL,Y,same,AL,AL-T-13,3/23/2021,1,0,3,0,0,
ALF2-1O2O.1.6,AL,Y,same,AL,AL-T-14,3/23/2021,3,2,4,0,0,
ALF2-1O2O.1.7,AL,Y,dif,AH,AH-T-11,3/23/2021,2,4,3,0,0,
ALF2-1G3Y.2.2,AL,N,dif,AH,AH-T-2,3/26/2021,9,0,3,0,0,
ALF2-1O3O.2.2,AL,N,dif,AH,AH-T-6,3/28/2021,2,0,10,0,0,
ALF2-1O3O.2.1,AL,N,same,AL,AL-T-2,3/28/2021,4,1,8,0,0,
ALF2-1G3P.4.2,AL,N,dif,AH,AH-T-13,3/31/2021,2,3,7,0,0,
ALF2-1G3P.4.4,AL,Y,dif,AH,AH-T-16,3/31/2021,2,2,6,0,0,
ALF2-1G3P.4.3,AL,Y,same,AL,AL-T-17,3/31/2021,7,1,0,0,0,
AHF2-1G4P.3.2,AH,N,dif,AL,AL-T-7,4/5/2021,0,2,2,0,0,a week late
AHF2-1G4P.3.3,AH,Y,same,AH,AH-T-7,4/5/2021,2,3,12,0,0,a week late
AHF2-1G4P.3.1,AH,N,same,AH,AH-T-12,4/6/2021,0,1,7,0,0,
ALF2-3G4G.2.5,AL,Y,dif,AH,AH-T-5,4/8/2021,0,6,8,0,0,
ALF2-3G4G.2.6,AL,Y,dif,AH,AH-T-8,4/8/2021,10,6,5,0,0,
ALF2-3G4G.2.2,AL,N,dif,AH,AH-T-17,4/8/2021,7,4,5,0,0,
ALF2-3G4G.2.1,AL,N,same,AL,AL-T-8,4/8/2021,2,5,7,0,0,
ALF2-3G4G.2.3,AL,N,dif,AH,AH-T-15,4/8/2021,0,2,14,0,0,
ALF2-1P4O.2.1,AL,Y,dif,AH,AH-T-9,4/10/2021,3,5,11,0,0,
ALF2-1O2G.2.1,AL,N,same,AL,AL-T-3,4/14/2021,0,0,2,0,0,
ALF2-1O2G.2.2,AL,N,dif,AH,AH-T-14,4/14/2021,3,0,11,0,0,
ALF2-1O2G.2.4,AL,Y,same,AL,AL-T-20,4/14/2021,6,4,6,0,0,
ALF2-1O2G.2.5,AL,Y,dif,AH,AH-T-10,4/14/2021,2,0,9,0,0,
AHF2-1Y2P.5.2,AH,Y,dif,AL,AL-T-22,4/17/2021,12,7,11,0,0,
AHF2-1Y2P.5.1,AH,Y,same,AH,AH-T-18,4/17/2021,0,0,0,0,0,
AHF2-1Y3O.3.2,AH,N,dif,AL,AL-T-4,4/15/2021,0,1,0,0,0,
AHF2-1Y3O.3.5,AH,Y,dif,AL,AL-T-21,4/15/2021,4,2,12,0,0,
ALF2-1P4P.4.1,AL,N,same,AL,AL-T-23,4/18/2021,4,5,13,0,0,
ALF2-1P4P.4.2,AL,N,dif,AH,AH-T-19,4/18/2021,25,6,4,0,0,
ALF2-1O3O.3.1,AL,N,same,AL,AL-T-19,4/21/2021,6,7,8,0,0,
ALF2-1O3O.3.2,AL,N,dif,AH,AH-T-1,4/21/2021,6,5,5,0,0,
ALF2-1G3Y.3.1,AL,N,same,AL,AL-T-1,4/21/2021,0,2,3,0,0,
ALF2-1G3Y.3.2,AL,N,dif,AH,AH-T-21,4/21/2021,6,3,4,0,0,
ALF2-1G3Y.3.6,AL,Y,dif,AH,AH-T-20,4/21/2021,10,1,2,0,0,
AHF2-1G4P.4.1,AH,N,same,AH,AH-T-22,4/22/2021,20,5,9,0,0,
AHF2-1G4P.4.2,AH,N,dif,AL,AL-T-5,4/22/2021,1,1,5,0,0,
ALF2-1G3P.5.1,AL,N,dif,AH,AH-T-23,4/22/2021,19,5,3,0,0,
ALF2-1G3P.5.4,AL,Y,dif,AH,AH-T-24,4/22/2021,20,1,7,0,0,
AHF2-1O3Y.1.5,AH,Y,same,AH,AH-T-11,4/23/2021,1,5,4,0,0,
AHF2-1O3Y.1.1,AH,N,dif,AL,AL-T-15,4/23/2021,3,1,0,0,0,
AHF2-1Y2P.5.4,AH,N,same,AH,AH-T-3,4/23/2021,2,3,3,0,0,
AHF2-1O3Y.1.4,AH,Y,dif,AL,AL-T-12,4/23/2021,4,4,0,1,0,
ALF2-1G3P.5.6,AL,Y,same,AL,AL-T-13,4/26/2021,9,7,7,0,0,
ALF2-3G4G.3.1,AL,N,same,AL,AL-T-2,5/3/2021,0,0,0,0,0,
ALF2-3G4G.3.2,AL,N,dif,AH,AH-T-2,5/3/2021,1,9,8,0,0,
ALF2-3G4G.3.3,AL,N,dif,AH,AH-T-6,5/3/2021,3,5,1,0,0,
ALF2-3G4G.3.7,AL,Y,same,AL,AL-T-24,5/3/2021,6,7,7,0,0,
ALF2-3G4G.3.8,AL,Y,same,AL,AL-T-25,5/3/2021,8,8,7,0,2,
ALF2-3G4G.3.9,AL,Y,dif,AH,AH-T-16,5/3/2021,4,6,5,0,0,
AHF2-1Y3O.4.1,AH,N,same,AH,AH-T-26,5/7/2021,0,6,38,0,0,
AHF2-1Y3O.4.3,AH,N,dif,AL,AL-T-7,5/7/2021,4,2,3,0,0,
AHF2-1Y3O.4.5,AH,Y,same,AH,AH-T-7,5/7/2021,5,4,10,0,0,
ALF2-1P3G.3.1,AL,N,same,AL,AL-T-27,5/8/2021,9,3,9,0,0,
ALF2-1P3G.3.4,AL,N,same,AL,AL-T-28,5/8/2021,19,6,4,0,0,
ALF2-1P3G.3.6,AL,Y,same,AL,AL-T-26,5/8/2021,10,3,4,0,0,
AHF2-1G4G.5.1,AH,Y,dif,AL,AL-T-14,5/8/2021,4,6,8,0,0,
ALF2-1P4O.3.1,AL,N,dif,AH,AH-T-15,5/11/2021,9,1,3,0,0,
ALF2-1O2G.3.2,AL,N,dif,AH,AH-T-17,5/11/2021,2,4,7,0,0,
ALF2-1O2G.3.4,AL,Y,dif,AH,AH-T-9,5/11/2021,8,7,0,0,0,
ALF2-1O2G.3.5,AL,Y,dif,AH,AH-T-8,5/11/2021,1,5,7,0,0,
AHF2-1G4P.5.3,AH,N,dif,AL,AL-T-31,5/14/2021,2,11,18,0,0,
AHF2-1G4P.5.2,AH,N,dif,AL,AL-T-32,5/14/2021,4,7,9,0,1,
AHF2-1G4P.5.4,AH,N,same,AH,AH-T-12,5/14/2021,1,6,3,0,0,
ALF2-1P4P.4.1,AL,N,same,AL,AL-T-30,5/14/2021,4,3,9,0,0,
AHF2-1G4P.5.1,AH,Y,same,AH,AH-T-25,5/14/2021,8,4,5,0,0,
AHF2-1G4P.5.5,AH,Y,dif,AL,AL-T-29,5/14/2021,6,5,10,0,0,
ALF2-1P4P.5.2,AL,Y,dif,AH,AH-T-5,5/14/2021,2,1,1,0,0,
ALF2-1G3P.6.2,AL,Y,same,AL,AL-T-20,5/15/2021,0,4,1,0,0,
ALF2-1G3P.6.1,AL,Y,dif,AH,AH-T-10,5/15/2021,0,0,6,0,0,
AHF2-1O3Y.2.3,AH,N,dif,AL,AL-T-4,5/16/2021,0,0,0,0,0,
AHF2-1O3Y.2.6,AH,Y,dif,AL,AL-T-21,5/16/2021,2,5,7,0,0,
AHF2-1O3Y.2.4,AH,Y,same,AH,AH-T-27,5/16/2021,7,4,1,0,0,
AHF2-1O3Y.2.5,AH,Y,same,AH,AH-T-28,5/16/2021,15,1,1,0,0,
AHF2-1O3Y.2.1,AH,N,same,AH,AH-T-14,5/16/2021,9,4,7,0,0,
AHF2-1O3Y.2.2,AH,N,same,AH,AH-T-13,5/16/2021,5,1,5,0,0,
ALF2-1O3O.4.5,AL,Y,same,AL,AL-T-22,5/18/2021,6,5,4,0,0,
ALF2-1O3O.4.3,AL,N,same,AL,AL-T-34,5/18/2021,2,3,7,0,0,
ALF2-1O3O.4.2,AL,N,same,AL,AL-T-33,5/18/2021,7,6,3,0,0,
ALF2-1O3O.4.6,AL,Y,dif,AH,AH-T-18,5/18/2021,22,5,2,0,0,
ALF2-3G4G.4.1,AL,N,same,AL,AL-T-3,5/30/2021,0,6,4,0,0,
ALF2-3G4G.4.2,AL,N,same,AL,AL-T-23,5/30/2021,8,2,3,0,0,
ALF2-3G4G.4.3,AL,N,dif,AH,AH-T-19,5/30/2021,12,3,1,0,0,
ALF2-3G4G.4.6,AL,Y,dif,AH,AH-T-11,5/30/2021,3,6,5,0,0,
ALF2-3G4G.4.5,AL,Y,same,AL,AL-T-12,5/30/2021,10,0,1,0,0,
ALF2-3G4G.4.4,AL,Y,same,AL,AL-T-17,5/30/2021,6,4,2,0,0,
AHF2-1Y3O.5.1,AH,N,same,AH,AH-T-3,6/2/2021,3,3,2,0,0,
AHF2-1Y3O.5.2,AH,N,same,AH,AH-T-23,6/2/2021,7,0,0,0,0,
AHF2-1Y3O.5.3,AH,N,dif,AL,AL-T-1,6/2/2021,0,2,1,0,0,
AHF2-1Y3O.5.4,AH,N,dif,AL,AL-T-19,6/2/2021,0,3,4,0,0,
AHF2-1Y3O.5.7,AH,Y,same,AH,AH-T-20,6/2/2021,2,4,1,0,0,
AHF2-1Y3O.5.6,AH,Y,same,AH,AH-T-24,6/2/2021,4,3,8,0,0,
AHF2-1Y3O.5.8,AH,Y,dif,AL,AL-T-13,6/2/2021,2,5,2,0,0,
ALF2-1P4O.4.4,AL,Y,dif,AH,AH-T-16,6/4/2021,0,4,4,0,0,
ALF2-1P4O.4.1,AL,N,dif,AH,AH-T-6,6/4/2021,1,5,4,0,0,
ALF2-1P4O.4.2,AL,N,dif,AH,AH-T-2,6/4/2021,13,12,0,0,0,
ALF2-1P4O.4.3,AL,Y,same,AL,AL-T-25,6/4/2021,4,4,19,0,0,
ALF2-1O2G.4.7,AL,Y,dif,AH,AH-T-29,6/7/2021,8,3,0,0,0,
ALF2-1O2G.4.3,AL,N,dif,AH,AH-T-26,6/7/2021,8,5,3,0,0,
ALF2-1O2G.4.2,AL,N,same,AL,AL-T-15,6/7/2021,6,4,3,0,0,
ALF2-1O2G.4.1,AL,N,same,AL,AL-T-7,6/7/2021,0,0,1,0,0,
ALF2-1P3G.4.1,AL,N,same,AL,AL-T-5,6/7/2021,0,0,0,0,0,
ALF2-1O2G.4.6,AL,Y,dif,AH,AH-T-7,6/7/2021,6,3,2,0,0,
ALF2-1O2G.4.5,AL,Y,same,AL,AL-T-35,6/7/2021,8,3,0,0,0,
ALF2-1P3G.4.5,AL,Y,same,AL,AL-T-24,6/7/2021,2,2,5,0,0,
ALF2-1P3G.4.4,AL,N,dif,AH,AH-T-22,6/7/2021,12,5,6,0,0,
AHF2-1O3Y.3.3,AH,Y,dif,AL,AL-T-14,6/9/2021,2,1,1,0,0,
AHF2-1O3Y.3.5,AH,Y,dif,AL,AL-T-36,6/9/2021,11,6,5,0,0,
AHF2-1O3Y.3.1,AH,Y,dif,AL,AL-T-24,6/9/2021,1,5,2,0,0,
AHF2-1O3Y.3.4,AH,Y,dif,AL,AL-T-26,6/9/2021,3,2,2,0,0,
AHF2-1O3Y.3.2,AH,Y,dif,AL,AL-T-28,6/9/2021,13,1,1,0,0,
ALF2-1O3O.5.3,AH,Y,same,AH,AH-T-9,6/14/2021,2,4,0,0,0,
AHF2-1Y3O.6.1,AH,N,same,AH,AH-T-14,6/27/2021,0,0,11,0,0,
AHF2-1Y3O.6.3,AH,N,same,AH,AH-T-17,6/27/2021,2,2,2,0,0,
AHF2-1Y3O.6.8,AH,Y,same,AH,AH-T-10,6/27/2021,3,1,4,0,0,
AHF2-1Y3O.6.13,AH,Y,dif,AL,AL-T-20,6/27/2021,0,4,6,0,0,
AHF2-1Y3O.6.14,AH,Y,dif,AL,AL-T-21,6/27/2021,0,4,5,0,0,
AHF2-1Y3O.6.9,AH,Y,same,AH,AH-T-18,6/27/2021,20,3,0,0,0,
AHF2-1Y3O.6.11,AH,Y,same,AH,AH-T-25,6/27/2021,10,2,5,0,0,
AHF2-1Y3O.6.10,AH,Y,same,AH,AH-T-8,6/27/2021,5,2,6,0,0,
AHF2-1Y3O.6.5,AH,N,dif,AL,AL-T-4,6/27/2021,2,1,6,0,0,
AHF2-1Y3O.6.4,AH,N,dif,AL,AL-T-2,6/27/2021,0,1,9,0,0,
ALF2-1P3G.5.1,AL,N,dif,AH,AH-T-12,6/29/2021,0,1,2,0,0,
ALF2-1P3G.5.2,AL,N,dif,AH,AH-T-21,6/29/2021,1,1,0,0,0,
ALF2-1P3G.5.3,AL,Y,dif,AH,AH-T-5,6/29/2021,0,0,1,0,0,
AHF2-1O3Y.4.9,AH,N,same,AH,AH-T-13,7/2/2021,2,3,5,0,0,
AHF2-1O3Y.4.20,AH,N,dif,AL,AL-T-19,7/2/2021,2,3,10,0,0,
AHF2-1O3Y.4.11,AH,N,dif,AL,AL-T-1,7/2/2021,10,5,1,0,0,
AHF2-1O3Y.4.1,AH,Y,same,AH,AH-T-24,7/2/2021,7,2,10,0,0,
AHF2-1O3Y.4.3,AH,Y,same,AH,AH-T-28,7/2/2021,6,2,1,0,0,
ALF2-1P4O.5.2,AL,Y,same,AL,AL-T-29,7/2/2021,0,8,9,0,0,
AHF2-1O3Y.4.5,AH,Y,dif,AL,AL-T-12,7/2/2021,3,2,11,0,0,
AHF2-1O3Y.4.4,AH,Y,same,AH,AH-T-9,7/2/2021,1,4,7,0,0,
AHF2-1O3Y.4.2,AH,Y,same,AH,AH-T-20,7/2/2021,4,5,5,0,0,
AHF2-1O3Y.4.6,AH,N,same,AH,AH-T-23,7/2/2021,2,5,11,0,0,
ALF2-1P4O.5.1,AL,N,dif,AH,AH-T-19,7/2/2021,0,6,3,0,0,
AHF2-1O3Y.4.12,AH,N,dif,AL,AL-T-23,7/2/2021,1,3,12,0,0,
AHF2-1O3Y.4.7,AH,N,same,AH,AH-T-3,7/2/2021,5,5,3,0,0,
AHF2-1O3Y.4.8,AH,N,same,AH,AH-T-15,7/2/2021,0,3,2,0,0,
ALF2-1O3O.6.1,AL,Y,same,AL,AL-T-25,7/10/2021,2,2,9,0,0,
ALF2-1O3O.6.2,AL,Y,dif,AH,AH-T-29,7/10/2021,1,4,8,0,0,
AHF2-1Y3O.7.3,AH,Y,same,AH,AH-T-7,7/23/2021,1,2,12,0,0,
AHF2-1Y3O.7.1,AH,N,same,AH,AH-T-2,7/23/2021,1,1,1,0,0,
AHF2-1Y3O.7.5,AH,Y,dif,AL,AL-T-40,7/23/2021,0,0,2,0,0,
AHF2-1Y3O.7.4,AH,Y,dif,AL,AL-T-17,7/23/2021,0,3,0,0,0,
AHF2-1O3Y.5.11,AH,Y,dif,AL,AL-T-27,7/25/2021,4,1,2,0,0,
AHF2-1O3Y.5.10,AH,Y,dif,AL,AL-T-28,7/25/2021,19,5,5,0,0,
AHF2-1O3Y.5.7,AH,Y,same,AH,AH-T-27,7/25/2021,8,4,5,0,0,
AHF2-1O3Y.5.9,AH,Y,dif,AL,AL-T-13,7/25/2021,0,3,7,0,0,
AHF2-1O3Y.5.2,AH,N,same,AH,AH-T-22,7/25/2021,4,2,8,0,0,
AHF2-1O3Y.5.1,AH,N,same,AH,AH-T-6,7/25/2021,0,8,5,0,0,
ALF2-1O2O.2.4,AL,N,dif,AH,AH-T-26,7/25/2021,2,19,17,0,0,
ALF2-1O2O.2.1,AL,N,same,AL,AL-T-5,7/25/2021,0,1,1,0,0,
ALF2-1O2O.2.3,AL,N,same,AL,AL-T-34,7/26/2021,3,1,4,0,0,
ALF2-1O2O.2.7,AL,Y,same,AL,AL-T-35,7/26/2021,6,1,2,0,0,
AHF2-1O3Y.5.8,AH,Y,dif,AL,AL-T-7,7/26/2021,0,2,1,0,0,
ALF2-1O2O.2.6,AL,Y,same,AL,AL-T-36,7/26/2021,6,3,3,2,0,
ALF2-1O2O.2.11,AL,Y,dif,AH,AH-T-30,7/26/2021,1,1,11,0,0,
ALF2-1O2O.2.9,AL,Y,dif,AH,AH-T-16,7/26/2021,0,0,2,0,0,
AHF2-1O3Y.5.4,AH,N,dif,AL,AL-T-38,7/26/2021,0,6,2,0,0,
AHF2-1O3Y.5.16,AH,N,dif,AL,AL-T-31,7/26/2021,1,7,6,0,0,
AHF2-1O3Y.5.17,AH,N,dif,AL,AL-T-32,7/26/2021,0,2,1,0,0,
AHF2-1P3G.4.1,AH,N,same,AH,AH-T-21,8/1/2021,9,5,11,0,0,
AHF2-1P3G.4.2,AH,Y,same,AH,AH-T-18,8/1/2021,4,2,9,0,0,
AHF2-1Y2G.3.10,AH,Y,same,AH,AH-T-29,8/12/2021,0,3,13,0,0,
AHF2-1Y2G.3.9,AH,Y,same,AH,AH-T-5,8/12/2021,0,1,0,0,0,
ALF2-1P2Y.2.7,AL,Y,same,AL,AL-T-41,8/12/2021,1,2,13,0,0,
AHF2-1Y2G.3.13,AH,Y,dif,AL,AL-T-25,8/12/2021,2,4,7,0,0,
AHF2-1Y2G.3.2,AH,N,same,AH,AH-T-3,8/12/2021,1,2,7,0,0,
AHF2-1Y2G.3.4,AH,N,dif,AL,AL-T-4,8/12/2021,0,0,0,0,0,
AHF2-1Y2G.3.5,AH,N,dif,AL,AL-T-7,8/12/2021,6,8,1,0,0,
AHF2-1Y2G.3.12,AH,Y,dif,AL,AL-T-20,8/12/2021,0,3,1,0,0,
AHF2-1Y2G.3.1,AH,N,same,AH,AH-T-12,8/12/2021,5,5,11,0,0,
ALF2-1P2Y.2.8,AL,Y,same,AL,AL-T-12,8/12/2021,0,6,20,0,0,
ALF2-1P2Y.2.9,AL,Y,dif,AH,AH-T-9,8/12/2021,3,2,3,0,0,
ALF2-1P2Y.2.4,AL,N,dif,AH,AH-T-14,8/12/2021,6,6,5,0,0,
ALF2-1O3Y.3.12,AL,Y,dif,AH,AH-T-28,8/16/2021,16,5,2,0,0,
ALF2-1O3Y.3.10,AL,Y,same,AL,AL-T-22,8/16/2021,0,8,2,0,0,
ALF2-1O3Y.3.6,AL,N,dif,AH,AH-T-13,8/16/2021,3,3,2,0,0,
ALF2-1O3Y.3.1,AL,N,same,AL,AL-T-23,8/16/2021,0,9,11,0,0,
ALF2-1O3Y.3.2,AL,N,same,AL,AL-T-26,8/16/2021,0,0,0,0,0,pred+ tutor assigned for pred- fish--oops
ALF2-1O3Y.3.7,AL,N,dif,AH,AH-T-19,8/16/2021,0,1,3,0,0,
ALF2-1O3Y.3.5,AL,N,dif,AH,AH-T-17,8/16/2021,0,0,0,0,0,
ALF2-1O3Y.3.4,AL,N,same,AL,AL-T-33,8/16/2021,6,1,2,0,0,
ALF2-1O3Y.3.3,AL,N,same,AL,AL-T-37,8/16/2021,0,2,2,0,0,
ALF2-1O3Y.3.13,AL,Y,dif,AH,AH-T-8,8/16/2021,2,1,7,0,0,
ALF2-1O3Y.3.14,AL,Y,dif,AH,AH-T-20,8/16/2021,9,6,3,0,0,
ALF2-1O2O.3.1,AL,N,same,AL,AL-T-19,8/19/2021,4,3,10,0,0,
ALF2-1O2O.3.7,AL,Y,dif,AH,AH-T-10,8/19/2021,2,2,0,0,0,
ALF2-1O2O.3.8,AL,Y,dif,AH,AH-T-25,8/19/2021,4,1,6,0,0,
ALF2-1O2O.3.6,AL,Y,same,AL,AL-T-21,8/19/2021,0,1,1,0,0,
ALF2-1O2O.3.4,AL,N,dif,AH,AH-T-23,8/19/2021,0,0,4,0,0,
ALF2-1O2O.3.3,AL,N,dif,AH,AH-T-15,8/19/2021,2,4,8,0,0,
ALF2-1O2O.3.2,AL,N,same,AL,AL-T-39,8/19/2021,1,6,6,0,0,
AHF2-1P3G.5.5,AH,Y,same,AH,AH-T-27,8/25/2021,3,0,9,0,0,
AHF2-1P3G.5.6,AH,Y,same,AH,AH-T-31,8/25/2021,6,2,4,0,0,
AHF2-1P3G.5.8,AH,Y,dif,AL,AL-T-13,8/25/2021,1,3,13,0,0,
AHF2-1P3G.5.10,AH,N,same,AH,AH-T-22,8/25/2021,13,1,6,0,0,
ALF2-1P4O.6.6,AL,Y,same,AL,AL-T-17,8/26/2021,15,7,2,0,0,
ALF2-1P4O.6.4,AL,N,dif,AH,AH-T-26,8/26/2021,3,4,7,0,0,
ALF2-1P4O.6.5,AL,N,dif,AH,AH-T-33,8/26/2021,7,5,9,0,0,
ALF2-1P4O.6.1,AL,N,same,AL,AL-T-38,8/26/2021,19,10,9,0,0,
ALF2-1P4O.6.3,AL,N,same,AL,AL-T-34,8/26/2021,12,9,5,0,0,
ALF2-1P4G.2.3,AL,N,dif,AH,AH-T-32,8/27/2021,0,1,35,0,0,
ALF2-1P4G.2.1,AL,N,same,AL,AL-T-42,8/27/2021,0,5,5,0,0,
ALF2-1P4G.2.2,AL,N,same,AL,AL-T-31,8/27/2021,0,6,7,0,0,
ALF2-1P4G.2.4,AL,Y,same,AL,AL-T-28,8/27/2021,0,4,14,0,0,
ALF2-1P4G.2.5,AL,Y,same,AL,AL-T-27,8/27/2021,0,7,0,0,0,
ALF2-1G3O.2.2,AL,N,dif,AH,AH-T-6,8/30/2021,3,2,4,0,0,
ALF2-1G3O.2.5,AL,Y,same,AL,AL-T-40,8/30/2021,0,5,12,0,0,
AHF2-1Y2G.4.5,AH,Y,same,AH,AH-T-30,9/7/2021,0,0,22,0,0,
AHF2-1Y2G.4.6,AH,Y,same,AH,AH-T-18,9/7/2021,0,6,8,0,0,
AHF2-1Y2G.4.7,AH,Y,dif,AL,AL-T-35,9/7/2021,0,0,10,0,0,
AHF2-1Y2G.4.8,AH,Y,dif,AL,AL-T-46,9/7/2021,0,4,2,0,0,
AHF2-1Y2G.4.1,AH,N,same,AH,AH-T-34,9/7/2021,6,1,3,0,0,
AHF2-1Y2G.4.2,AH,N,same,AH,AH-T-21,9/7/2021,2,5,7,0,0,
AHF2-1Y2G.4.4,AH,N,dif,AL,AL-T-43,9/7/2021,0,3,9,0,0,
AHF2-1Y2G.4.3,AH,N,dif,AL,AL-T-44,9/7/2021,0,6,11,0,0,
AHF2-1G3P4Y.5.1,AH,Y,same,AH,AH-T-24,9/11/2021,7,3,14,0,0,
ALF2-1P2Y.3.2,AL,N,dif,AH,AH-T-14,9/13/2021,10,8,3,0,0,
ALF2-1P2Y.3.1,AL,N,same,AL,AL-T-1,9/13/2021,8,4,9,0,0,
AHF2-1Y2P.6.1,AH,N,same,AH,AH-T-3,9/14/2021,1,0,1,0,0,
AHF2-1Y2P.6.2,AH,N,same,AH,AH-T-12,9/14/2021,4,1,0,0,0,
AHF2-1Y2P.6.3,AH,N,dif,AL,AL-T-4,9/14/2021,0,1,0,0,0,
ALF2-1O3Y.4.2,AL,N,dif,AH,AH-T-17,9/17/2021,4,2,0,0,0,
ALF2-1O2G.6.2,AL,N,dif,AH,AH-T-13,9/17/2021,0,0,4,0,0,
ALF2-1O2G.6.1,AL,N,same,AL,AL-T-23,9/17/2021,0,5,7,0,0,
AHF2-1P3G.6.5,AH,N,dif,AL,AL-T-39,9/20/2021,5,2,18,0,0,
AHF2-1P3G.6.3,AH,N,dif,AL,AL-T-19,9/20/2021,0,1,9,0,0,
AHF2-1P3G.6.1,AH,N,same,AH,AH-T-15,9/20/2021,1,1,5,0,0,
AHF2-1P3G.6.2,AH,N,same,AH,AH-T-23,9/20/2021,2,4,10,0,0,
ALF2-1P4G.3.6,AL,Y,dif,AH,AH-T-10,9/23/2021,3,0,13,0,0,
ALF2-1P4G.3.5,AL,Y,dif,AH,AH-T-25,9/23/2021,9,0,9,0,0,
ALF2-1P4G.3.4,AL,Y,same,AL,AL-T-22,9/23/2021,3,4,11,0,0,
ALF2-1P4G.3.3,AL,Y,same,AL,AL-T-12,9/23/2021,4,5,11,0,0,
ALF2-1P4G.3.2,AL,N,dif,AH,AH-T-41,9/23/2021,1,8,18,0,0,
ALF2-1P4O.7.2,AL,N,dif,AH,AH-T-33,9/26/2021,6,1,19,0,0,
ALF2-1P4O.7.4,AL,Y,dif,AH,AH-T-27,9/26/2021,0,6,21,0,0,
ALF2-1P4O.7.1,AL,N,same,AL,AL-T-34,9/26/2021,3,2,16,0,0,
AHF2-1G4G.6.6,AH,Y,same,AH,AH-T-28,9/28/2021,8,4,16,0,0,
AHF2-1G4G.6.7,AH,Y,same,AH,AH-T-38,9/28/2021,0,1,2,0,0,
AHF2-1G4G.6.1,AH,N,same,AH,AH-T-40,9/28/2021,2,3,12,0,0,
AHF2-1G4G.6.3,AH,N,dif,AL,AL-T-42,9/28/2021,1,3,8,0,0,
AHF2-1G4G.6.2,AH,N,same,AH,AH-T-37,9/28/2021,3,3,2,0,0,
AHF2-1G4G.6.4,AH,N,dif,AL,AL-T-39,9/28/2021,0,0,4,0,0,
AHF2-1G4G.6.5,AH,N,dif,AL,AL-T-48,9/28/2021,1,0,3,0,0,
AHF2-1G4G.6.9,AH,Y,dif,AL,AL-T-28,9/28/2021,3,0,2,0,0,
AHF2-1Y2P.7.3,AH,Y,same,AH,AH-T-9,10/10/2021,3,5,1,0,0,
AHF2-1Y2P.7.4,AH,Y,dif,AL,AL-T-17,10/10/2021,6,2,11,0,0,
AHF2-1Y2P.7.2,AH,N,dif,AL,AL-T-37,10/10/2021,0,2,5,0,0,
AHF2-1Y2P.7.1,AH,N,dif,AL,AL-T-43,10/10/2021,0,1,2,0,0,
ALF2-EXTA.1.1,AL,Y,dif,AH,AH-T-31,10/12/2021,0,4,4,0,0,
AHF2-EXTA.1.3,AH,Y,same,AH,AH-T-24,10/17/2021,4,5,12,0,0,
AHF2-EXTA.1.2,AH,N,dif,AL,AL-T-1,10/17/2021,7,4,4,0,0,
AHF2-EXTA.1.1,AH,N,same,AH,AH-T-26,10/17/2021,0,3,32,0,0,
AHF2-EXTA.1.6,AH,Y,dif,AL,AL-T-13,10/17/2021,0,0,7,0,0,
AHF2-EXTA.1.5,AH,Y,dif,AL,AL-T-35,10/17/2021,0,2,9,0,0,
AHF2-1G4Y.1.9,AH,Y,dif,AL,AL-T-21,10/18/2021,0,2,4,0,0,
AHF2-1G4Y.1.10,AH,Y,dif,AL,AL-T-36,10/18/2021,0,2,5,0,0,
AHF2-EXTB.1.4,AH,Y,dif,AL,AL-T-46,10/18/2021,0,0,0,0,0,
AHF2-1G4Y.1.2,AH,N,same,AH,AH-T-13,10/18/2021,0,2,1,0,0,
AHF2-1G4Y.1.6,AH,Y,same,AH,AH-T-28,10/18/2021,1,0,19,0,0,female had baby during acclimation
AHF2-1G4Y.1.5,AH,Y,same,AH,AH-T-18,10/18/2021,1,0,3,0,0,
AHF2-1G4Y.1.4,AH,Y,same,AH,AH-T-8,10/18/2021,0,4,1,0,0,
AHF2-EXTB.1.3,AH,Y,same,AH,AH-T-30,10/18/2021,0,4,18,0,0,
AHF2-EXTB.1.2,AH,N,dif,AL,AL-T-4,10/18/2021,0,0,0,0,0,
AHF2-1G4Y.1.7,AH,Y,dif,AL,AL-T-49,10/18/2021,0,0,16,0,0,
AHF2-1G4Y.1.8,AH,Y,dif,AL,AL-T-20,10/18/2021,0,0,4,0,0,
AHF2-EXTB.1.1,AH,N,same,AH,AH-T-21,10/18/2021,0,0,13,0,0,
AHF2-1G4Y.1.1,AH,N,same,AH,AH-T-17,10/18/2021,0,1,1,0,0,
AHF2-1G3Y.1.3,AH,Y,dif,AL,AL-T-50,10/21/2021,0,0,0,0,0,
AHF2-1G3Y.1.2,AH,N,same,AH,AH-T-23,10/21/2021,0,6,15,0,0,
ALF2-1P4G.4.1,AL,N,dif,AH,AH-T-41,10/24/2021,0,8,18,0,0,
ALF2-1P4G.4.2,AL,Y,dif,AH,AH-T-25,10/24/2021,8,6,29,0,0,
AHF2-1Y2P.8.1,AH,N,dif,AL,AL-T-19,11/5/2021,0,2,16,0,0,
AHF2-1Y2P.8.3,AH,Y,dif,AL,AL-T-50,11/5/2021,2,0,1,0,0,
ALF2-EXTA.2.1,AL,N,same,AL,AL-T-39,11/5/2021,0,0,0,0,0,
ALF2-EXTA.2.2,AL,N,dif,AH,AH-T-37,11/5/2021,0,0,0,0,0,
ALF2-EXTA.2.3,AL,Y,same,AL,AL-T-12,11/5/2021,0,0,1,0,0,
ALF2-EXTA.2.4,AL,Y,same,AL,AL-T-27,11/5/2021,0,2,0,0,0,
ALF2-EXTA.2.5,AL,Y,dif,AH,AH-T-5,11/5/2021,0,0,0,0,0,
ALF2-EXTA.2.6,AL,Y,dif,AH,AH-T-40,11/5/2021,4,8,3,0,0,
AHF2-EXTA.2.3,AH,N,dif,AL,AL-T-48,11/6/2021,2,3,15,0,0,
AHF2-EXTA.2.5,AH,Y,dif,AL,AL-T-47,11/6/2021,0,2,3,0,0,
AHF2-EXTA.2.2,AH,N,same,AH,AH-T-46,11/6/2021,0,0,0,0,0,
AHF2-EXTA.2.4,AH,Y,same,AH,AH-T-42,11/6/2021,1,5,30,0,0,
AHF2-EXTB.2.3,AH,N,dif,AL,AL-T-34,11/9/2021,0,0,0,0,0,
AHF2-EXTB.2.2,AH,N,same,AH,AH-T-37,11/9/2021,0,0,1,0,0,
AHF2-EXTB.2.5,AH,Y,same,AH,AH-T-27,11/9/2021,0,3,8,0,0,
AHF2-EXTB.2.6,AH,Y,dif,AL,AL-T-51,11/9/2021,0,0,0,0,0,
AHF2-1G3Y.2.5,AH,Y,same,AH,AH-T-38,11/10/2021,0,2,0,0,0,
AHF2-1G3Y.2.6,AH,Y,same,AH,AH-T-9,11/10/2021,0,1,9,1,0,
AHF2-1G3Y.2.1,AH,N,same,AH,AH-T-33,11/10/2021,6,4,9,0,0,
AHF2-1G3Y.2.2,AH,N,same,AH,AH-T-34,11/10/2021,2,4,8,0,0,
AHF2-1G3Y.2.8,AH,Y,dif,AL,AL-T-43,11/10/2021,0,2,4,0,0,
AHF2-1G4Y.2.2,AH,N,dif,AL,AL-T-45,11/11/2021,0,0,0,3,3,"tutor female was about to explode, euth after assay"
AHF2-1G4Y.2.1,AH,N,same,AH,AH-T-43,11/11/2021,0,6,12,0,0,
ALF2-EXTB.1.1,AL,Y,same,AL,AL-T-44,11/11/2021,0,0,2,0,0,
ALF2-1O3Y.6.3,AL,Y,same,AL,AL-T-20,11/23/2021,0,0,0,0,0,
ALF2-1O3Y.6.4,AL,Y,same,AL,AL-T-36,11/23/2021,0,0,0,0,0,
ALF2-1P4O.9.4,AL,Y,dif,AH,AH-T-18,11/23/2021,0,0,0,0,0,
ALF2-1O3Y.6.1,AL,N,same,AL,AL-T-4,11/23/2021,0,0,0,0,0,
ALF2-1P4O.9.2,AL,N,dif,AH,AH-T-39,11/23/2021,1,3,9,0,0,
ALF2-1P4O.9.1,AL,N,same,AL,AL-T-42,11/23/2021,0,0,0,0,0,
ALF2-1O3Y.6.2,AL,N,dif,AH,AH-T-21,11/23/2021,1,13,7,0,0,
ALF2-1O3Y.6.6,AL,Y,dif,AH,AH-T-45,11/23/2021,0,0,0,0,0,
ALF2-1P4O.9.5,AL,Y,dif,AH,AH-T-44,11/23/2021,0,2,0,0,0,
ALF2-EXTC.1.1,AL,Y,same,AL,AL-T-13,11/25/2021,0,1,20,0,0,
ALF2-EXTA.3.3,AL,Y,same,AL,AL-T-49,11/29/2021,0,4,7,0,0,
ALF2-EXTA.3.5,AL,Y,dif,AH,AH-T-30,11/29/2021,15,5,12,0,0,
ALF2-EXTA.3.4,AL,Y,dif,AH,AH-T-24,11/29/2021,5,1,2,0,0,
ALF2-EXTA.3.1,AL,N,same,AL,AL-T-1,11/29/2021,0,1,2,0,0,
AHF2-EXTB.3.2,AH,Y,dif,AL,AL-T-52,12/1/2021,9,10,3,0,0,
AHF2-EXTB.3.1,AH,Y,same,AH,AH-T-31,12/1/2021,0,4,5,0,0,
AHF2-1G3Y.3.2,AH,Y,same,AH,AH-T-40,12/5/2021,23,1,20,0,1,
AHF2-1G3Y.3.1,AH,Y,dif,AL,AL-T-53,12/6/2021,5,1,7,1,0,
ALF2-EXTA.4.5,AL,Y,dif,AH,AH-T-38,12/22/2021,6,7,9,0,0,
ALF2-EXTA.4.6,AL,Y,dif,AH,AH-T-27,12/22/2021,15,0,2,0,0,
ALF2-EXTA.4.2,AL,Y,same,AL,AL-T-54,12/22/2021,0,1,10,0,0,
ALF2-EXTA.4.3,AL,Y,same,AL,AL-T-50,12/22/2021,7,2,5,0,0,
