﻿ID,flag,body_length,body_area,body_black_num,body_black_area,body_black_prop,body_fuzzyblack_num,body_fuzzyblack_area,body_fuzzyblack_prop,body_melanin_num,body_melanin_area,body_melanin_prop,body_yellow_num,body_yellow_area,body_yellow_prop,body_orange_num,body_orange_area,body_orange_prop,body_xanthophore_num,body_xanthophore_area,body_xanthophore_prop,tail_area,tail_black_num,tail_black_area,tail_black_prop,tail_fuzzyblack_num,tail_fuzzyblack_area,tail_fuzzyblack_prop,tail_melanin_num,tail_melanin_area,tail_melanin_prop,tail_yellow_num,tail_yellow_area,tail_yellow_prop,tail_orange_num,tail_orange_area,tail_orange_prop,tail_xanthophore_num,tail_xanthophore_area,tail_xanthophore_prop
AHF2-1Y3O.1.2,,15.842,47.484,6,9.313,0.196129222,2,3.223,0.067875495,8,12.536,0.264004717,0,0,0,3,3.524,0.074214472,3,3.524,0.074214472,24.742,1,13.768,0.556462695,0,0,0,1,13.768,0.556462695,0,0,0,1,0.309,0.012488885,1,0.309,0.012488885
AHF2-1O3P.1.5,,15.917,46.608,3,5.783,0.124077412,2,7.029,0.15081102,5,12.812,0.274888431,1,3.381,0.072541195,2,2.988,0.064109166,3,6.369,0.13665036,28.045,0,0,0,0,0,0,0,0,0,0,0,0,0,0,0,0,0,0
ALF2-1P4P.1.1,,16.341,47.749,3,10.343,0.216611866,0,0,0,3,10.343,0.216611866,0,0,0,3,10.062,0.210726926,3,10.062,0.210726926,22.86,1,7.168,0.313560805,0,0,0,1,7.168,0.313560805,1,7.98,0.349081365,0,0,0,1,7.98,0.349081365
ALF2-1G3P.3.1,,16.444,50.882,3,10.833,0.212904367,1,1.919,0.037714712,4,12.752,0.250619079,0,0,0,3,9.652,0.189693801,3,9.652,0.189693801,24.212,1,9.08,0.375020651,1,1.655,0.068354535,2,10.735,0.443375186,0,0,0,1,13.155,0.543325624,1,13.155,0.543325624
AHF2-1Y2G.1.3,,15.885,46.642,3,9.551,0.204772523,2,4.118,0.088289524,5,13.669,0.293062047,0,0,0,2,4.594,0.098494919,2,4.594,0.098494919,25.855,1,1.891,0.073138658,0,0,0,1,1.891,0.073138658,0,0,0,0,0,0,0,0,0
AHF2-1G3P4Y.2.4,,16.58,50.88,5,12.995,0.255404874,1,1.466,0.028812893,6,14.461,0.284217767,2,4.053,0.079658019,1,3.835,0.075373428,3,7.888,0.155031447,28.996,1,1.674,0.057732101,0,0,0,1,1.674,0.057732101,1,3.954,0.136363636,0,0,0,1,3.954,0.136363636
ALF2-1P4G.1.5,,15.629,44.515,5,9.26,0.208019769,2,1.881,0.04225542,7,11.141,0.250275188,0,0,0,3,3.029,0.068044479,3,3.029,0.068044479,28.073,2,4.372,0.155736829,0,0,0,2,4.372,0.155736829,0,0,0,2,2.87,0.102233463,2,2.87,0.102233463
ALF2-1P4P.2.1,,15.978,48.04,4,10.875,0.226373855,1,2.443,0.050853455,5,13.318,0.277227311,0,0,0,2,10.53,0.21919234,2,10.53,0.21919234,26.819,2,9.273,0.345762333,0,0,0,2,9.273,0.345762333,0,0,0,1,12.169,0.453745479,1,12.169,0.453745479
AHF2-1O3P.1.7,,15.767,45.736,4,6.011,0.131428197,2,6.134,0.134117544,6,12.145,0.265545741,1,0.499,0.010910443,2,2.201,0.048124016,3,2.7,0.059034459,24.857,2,5.573,0.224202438,0,0,0,2,5.573,0.224202438,0,0,0,1,5.223,0.210121897,1,5.223,0.210121897
AHF2-1G4G.1.3,,15.481,44.125,4,8.619,0.195331445,4,5.364,0.121563739,8,13.983,0.316895184,2,2.881,0.065291785,0,0,0,2,2.881,0.065291785,23.49,1,0.549,0.023371648,0,0,0,1,0.549,0.023371648,0,0,0,1,11.659,0.496338868,1,11.659,0.496338868
ALF2-1G3P.2.2,,16.073,47.685,6,12.463,0.261361015,0,0,0,6,12.463,0.261361015,0,0,0,3,14.89,0.312257523,3,14.89,0.312257523,25.54,1,7.312,0.286296006,0,0,0,1,7.312,0.286296006,1,10.864,0.425371966,0,0,0,1,10.864,0.425371966
ALF2-1O3O.1.2,,15.781,45.756,5,11.62,0.253955765,1,4.671,0.102084972,6,16.291,0.356040738,0,0,0,2,5.091,0.111264097,2,5.091,0.111264097,25.49,1,1.955,0.076696744,1,0.534,0.020949392,2,2.489,0.097646136,0,0,0,1,12.478,0.489525304,1,12.478,0.489525304
AHF2-1G4G.2.3,,17.128,53.52,4,13.723,0.256408819,1,2.27,0.042414051,5,15.993,0.29882287,0,0,0,3,3.813,0.071244395,3,3.813,0.071244395,31.139,1,11.307,0.36311378,0,0,0,1,11.307,0.36311378,0,0,0,1,14.829,0.476219532,1,14.829,0.476219532
AHF2-1G3P4Y.2.5,,18.074,61.21,4,10.617,0.17345205,1,1.817,0.029684692,5,12.434,0.203136742,1,3.285,0.053667701,0,0,0,1,3.285,0.053667701,30.972,1,1.826,0.058956477,0,0,0,1,1.826,0.058956477,0,0,0,1,7.362,0.237698566,1,7.362,0.237698566
ALF2-1O2O.1.6,,16.126,49.666,3,5.823,0.117243184,2,4.81,0.096846938,5,10.633,0.214090122,1,4.154,0.083638707,1,2.888,0.058148432,2,7.042,0.141787138,24.06,1,1.896,0.078802993,0,0,0,1,1.896,0.078802993,1,2.606,0.108312552,0,0,0,1,2.606,0.108312552
ALF2-1P4P.2.3,,18.298,62.097,3,10.222,0.164613427,1,1.51,0.024316795,4,11.732,0.188930222,0,0,0,3,12.354,0.198946809,3,12.354,0.198946809,34.929,1,13.323,0.381430903,0,0,0,1,13.323,0.381430903,0,0,0,1,15.578,0.445990438,1,15.578,0.445990438
AHF2-1G4G.1.2,,17.13,54.05,4,12.098,0.223829787,2,3.632,0.06719704,6,15.73,0.291026827,0,0,0,2,5.423,0.100333025,2,5.423,0.100333025,28.512,1,11.928,0.418350168,0,0,0,1,11.928,0.418350168,0,0,0,1,16.082,0.56404321,1,16.082,0.56404321
AHF2-1Y3Y.1.3,,16.27,49.041,3,7.385,0.150588283,2,3.716,0.075773333,5,11.101,0.226361616,0,0,0,2,3.39,0.069125833,2,3.39,0.069125833,27.962,0,0,0,0,0,0,0,0,0,0,0,0,0,0,0,0,0,0
ALF2-1O3Y.2.2,,16.89,51.257,3,6.307,0.123046608,1,1.253,0.024445442,4,7.56,0.14749205,0,0,0,2,6.664,0.130011511,2,6.664,0.130011511,29.3,1,2.925,0.099829352,0,0,0,1,2.925,0.099829352,1,6.988,0.238498294,0,0,0,1,6.988,0.238498294
ALF2-1P4G.1.7,,16.786,47.652,4,9.284,0.194829178,1,0.548,0.011500042,5,9.832,0.20632922,0,0,0,2,3.803,0.079807773,2,3.803,0.079807773,28.322,1,1.399,0.049396229,0,0,0,1,1.399,0.049396229,0,0,0,1,2.615,0.09233105,1,2.615,0.09233105
AHF2-1G3G.2.1,,15.437,41.584,3,11.28,0.271258176,1,2.614,0.062860716,4,13.894,0.334118892,1,1.297,0.031189881,1,8.021,0.192886687,2,9.318,0.224076568,25.665,1,7.63,0.297292032,0,0,0,1,7.63,0.297292032,0,0,0,1,9.639,0.375569842,1,9.639,0.375569842
AHF2-1P3G.1.2,,15.327,43.908,4,10.945,0.249271203,1,1.578,0.035938781,5,12.523,0.285209985,2,2.394,0.054523094,0,0,0,2,2.394,0.054523094,22.8,0,0,0,0,0,0,0,0,0,0,0,0,0,0,0,0,0,0
ALF2-1G3P.3.3,,16.481,52.133,3,10.23,0.196228876,1,3.264,0.062609096,4,13.494,0.258837972,0,0,0,3,14.273,0.273780523,3,14.273,0.273780523,28.133,2,4.476,0.159101411,1,2.059,0.073188071,3,6.535,0.232289482,0,0,0,1,5.312,0.188817403,1,5.312,0.188817403
ALF2-1O2G.1.5,,16.737,51.862,5,11.039,0.212853342,2,1.859,0.035845127,7,12.898,0.248698469,0,0,0,1,2.157,0.041591146,1,2.157,0.041591146,22.715,3,5.101,0.224565265,0,0,0,3,5.101,0.224565265,0,0,0,1,4.322,0.190270746,1,4.322,0.190270746
AHF2-1P3G.2.4,y,16.605,47.607,3,5.992,0.125863844,2,6.595,0.138530048,5,12.587,0.264393892,0,0,0,0,0,0,0,0,0,22.862,0,0,0,0,0,0,0,0,0,0,0,0,0,0,0,0,0,0
AHF2-1Y2P.2.2,,18.673,63.621,6,13.653,0.214598953,1,2.394,0.037629085,7,16.047,0.252228038,0,0,0,3,12.805,0.201270021,3,12.805,0.201270021,18.848,1,1.69,0.089664686,0,0,0,1,1.69,0.089664686,0,0,0,1,3.339,0.177154075,1,3.339,0.177154075
ALF2-1P4P.1.3,,18.359,64.21,4,16.013,0.249384831,0,0,0,4,16.013,0.249384831,1,6.248,0.097305716,2,6.17,0.096090952,3,12.418,0.193396667,36.21,1,8.963,0.247528307,0,0,0,1,8.963,0.247528307,0,0,0,1,13.934,0.384810826,1,13.934,0.384810826
ALF2-1O3Y.1.1,,18.577,64.175,3,10.217,0.159205298,3,5.047,0.078644332,6,15.264,0.23784963,0,0,0,2,3.478,0.054195559,2,3.478,0.054195559,29.648,1,4.455,0.150263087,0,0,0,1,4.455,0.150263087,1,3.677,0.124021856,0,0,0,1,3.677,0.124021856
AHF2-1P3Y.1.2,,17.537,57.421,4,8.978,0.156353947,2,7.575,0.131920378,6,16.553,0.288274325,1,1.651,0.028752547,1,2.433,0.042371258,2,4.084,0.071123805,27.741,1,1.48,0.053350636,0,0,0,1,1.48,0.053350636,0,0,0,1,2.796,0.100789445,1,2.796,0.100789445
AHF2-1G4O.1.1,,17.509,57.608,3,5.112,0.088737675,5,6.491,0.112675323,8,11.603,0.201412998,2,4.272,0.074156367,1,1.485,0.02577767,3,5.757,0.099934037,30.932,1,10.019,0.323904048,0,0,0,1,10.019,0.323904048,0,0,0,1,17.501,0.565789474,1,17.501,0.565789474
ALF2-3G4G.1.1,,17.056,52.68,3,7.193,0.136541382,1,2.077,0.039426727,4,9.27,0.175968109,1,5.019,0.095273349,2,4.424,0.08397874,3,9.443,0.179252088,28.474,2,9.151,0.321380909,0,0,0,2,9.151,0.321380909,0,0,0,2,11.282,0.396221114,2,11.282,0.396221114
ALF2-1P4O.1.2,,18.276,58.603,3,6.04,0.103066396,2,4.695,0.080115352,5,10.735,0.183181748,1,3.376,0.057607972,0,0,0,1,3.376,0.057607972,31.171,2,11.874,0.380930994,0,0,0,2,11.874,0.380930994,1,16.671,0.534824035,0,0,0,1,16.671,0.534824035
AHF2-1Y3Y.1.4,,14.625,41.693,5,8.482,0.203439426,1,2.036,0.048833137,6,10.518,0.252272564,1,5.33,0.127839206,1,2.051,0.04919291,2,7.381,0.177032116,25.122,4,8.575,0.341334289,0,0,0,4,8.575,0.341334289,0,0,0,1,14.381,0.572446461,1,14.381,0.572446461
AHF2-1P3Y.2.1,,14.459,40.905,4,9.724,0.23772155,2,2.064,0.050458379,6,11.788,0.288179929,1,0.366,0.008947561,0,0,0,1,0.366,0.008947561,21.525,0,0,0,0,0,0,0,0,0,0,0,0,0,0,0,0,0,0
ALF2-1O2O.1.8,,15.764,44.983,4,9.171,0.20387702,1,4.337,0.096414201,5,13.508,0.300291221,0,0,0,2,9.52,0.211635507,2,9.52,0.211635507,25.718,0,0,0,0,0,0,0,0,0,0,0,0,0,0,0,0,0,0
ALF2-3G4G.1.8,,15.699,45.442,5,9.357,0.205910831,2,5.708,0.125610669,7,15.065,0.3315215,1,5.649,0.12431231,0,0,0,1,5.649,0.12431231,24.667,3,8.641,0.350306077,0,0,0,3,8.641,0.350306077,0,0,0,3,13.633,0.552681721,3,13.633,0.552681721
AHF2-1O3P.1.1,,17.964,59.809,7,10.802,0.18060827,2,8.638,0.144426424,9,19.44,0.325034694,1,12.636,0.211272551,1,3.011,0.050343594,2,15.647,0.261616145,31.309,0,0,0,0,0,0,0,0,0,0,0,0,0,0,0,0,0,0
AHF2-1G4G.2.1,,19.19,65.751,7,12.723,0.19350276,2,4.882,0.074249821,9,17.605,0.267752582,1,5.958,0.090614591,1,7.586,0.115374671,2,13.544,0.205989263,32.686,1,10.128,0.309857431,0,0,0,1,10.128,0.309857431,0,0,0,1,15.646,0.478675886,1,15.646,0.478675886
ALF2-1P3G.1.2,,17.841,58.544,5,10.119,0.172844356,2,10.719,0.183093058,7,20.838,0.355937415,0,0,0,2,6.926,0.118304181,2,6.926,0.118304181,31.15,1,3.557,0.114189406,0,0,0,1,3.557,0.114189406,0,0,0,1,3.296,0.105810594,1,3.296,0.105810594
ALF2-1G3P.2.1,,18.577,61.62,5,11.043,0.179211295,3,3.065,0.049740344,8,14.108,0.228951639,0,0,0,2,17.598,0.285589094,2,17.598,0.285589094,33.462,2,3.76,0.112366266,1,1.58,0.04721774,3,5.34,0.159584006,0,0,0,1,13.226,0.395254318,1,13.226,0.395254318
AHF2-1G4G.2.5,,16.18,47.393,5,9.614,0.202856962,1,1.276,0.026923807,6,10.89,0.229780769,0,0,0,3,5.843,0.123288249,3,5.843,0.123288249,26.644,2,7.693,0.288732923,0,0,0,2,7.693,0.288732923,0,0,0,1,13.112,0.492118301,1,13.112,0.492118301
AHF2-1G3P4Y.3.3,,16.113,47.848,6,10.273,0.214700719,2,2.41,0.050367831,8,12.683,0.26506855,1,10.604,0.221618458,1,1.521,0.031788163,2,12.125,0.253406621,24.488,0,0,0,0,0,0,0,0,0,0,0,0,0,0,0,0,0,0
ALF2-1O3O.2.6,,16.199,46.465,3,8.246,0.177466911,1,3.984,0.085741956,4,12.23,0.263208867,0,0,0,3,6.914,0.148800172,3,6.914,0.148800172,25.491,1,9.434,0.370091405,0,0,0,1,9.434,0.370091405,0,0,0,1,11.021,0.432348672,1,11.021,0.432348672
ALF2-1P4P.3.4,,15.665,44.992,4,8.398,0.186655405,2,2.379,0.052876067,6,10.777,0.239531472,0,0,0,3,7.782,0.172964083,3,7.782,0.172964083,25.429,2,13.758,0.541035825,0,0,0,2,13.758,0.541035825,1,12.18,0.478980691,0,0,0,1,12.18,0.478980691
AHF2-1G3G.2.3,,16.586,52.558,3,11.124,0.211651889,1,4.083,0.077685604,4,15.207,0.289337494,0,0,0,2,4.144,0.078846227,2,4.144,0.078846227,26.795,1,16.823,0.627841015,0,0,0,1,16.823,0.627841015,0,0,0,1,5.087,0.189848852,1,5.087,0.189848852
AHF2-1O3P.2.2,,15.903,46.949,4,13.22,0.281582142,0,0,0,4,13.22,0.281582142,0,0,0,2,9.262,0.197277897,2,9.262,0.197277897,24.553,1,1.912,0.077872358,0,0,0,1,1.912,0.077872358,0,0,0,0,0,0,0,0,0
ALF2-1P3G.1.4,y,18.58,64.447,3,17.341,0.269073813,1,6.353,0.098577125,4,23.694,0.367650938,1,1.851,0.028721275,2,8.689,0.134823964,3,10.54,0.163545239,35.809,2,12.059,0.336758915,0,0,0,2,12.059,0.336758915,0,0,0,1,18.134,0.506409003,1,18.134,0.506409003
ALF2-1P4P.3.2,,16.527,52.82,2,8.344,0.157970466,1,2.178,0.041234381,3,10.522,0.199204847,0,0,0,2,6.747,0.127735706,2,6.747,0.127735706,26.453,1,7.212,0.272634484,0,0,0,1,7.212,0.272634484,1,4.163,0.157373455,0,0,0,1,4.163,0.157373455
AHF2-1Y2P.5.2,,18.612,66.654,6,15.197,0.22799832,1,1.478,0.022174213,7,16.675,0.250172533,0,0,0,3,9.499,0.142512077,3,9.499,0.142512077,29.839,0,0,0,0,0,0,0,0,0,0,0,0,0,0,0,0,0,0
AHF2-1Y3O.3.5,,18.819,65.214,4,9.557,0.146548287,1,3.078,0.047198454,5,12.635,0.193746741,0,0,0,3,7.437,0.11403993,3,7.437,0.11403993,31.261,1,10.192,0.326029238,0,0,0,1,10.192,0.326029238,0,0,0,1,15.311,0.489779598,1,15.311,0.489779598
ALF2-1O2O.1.7,,17.668,54.868,2,14.314,0.260880659,1,1.481,0.026992054,3,15.795,0.287872713,1,0.327,0.005959758,2,1.783,0.032496173,3,2.11,0.038455931,24.741,1,6.159,0.248939008,0,0,0,1,6.159,0.248939008,0,0,0,1,5.514,0.222868922,1,5.514,0.222868922
ALF2-1G3P.4.4,,17.869,58.014,4,9.776,0.168511049,1,2.669,0.046006136,5,12.445,0.214517186,1,1.646,0.028372462,2,12.185,0.210035509,3,13.831,0.23840797,28.328,2,7.205,0.254341994,1,0.266,0.009390003,3,7.471,0.263731997,0,0,0,1,8.114,0.286430387,1,8.114,0.286430387
AHF2-1O3P.1.3,,17.602,59.581,6,10.6,0.177909065,1,4.853,0.081452141,7,15.453,0.259361206,0,0,0,2,14.474,0.242929793,2,14.474,0.242929793,29.849,0,0,0,0,0,0,0,0,0,0,0,0,0,0,0,0,0,0
AHF2-1Y3Y.1.1,,18.16,60.862,3,6.757,0.111021656,2,21.589,0.354720515,5,28.346,0.465742171,1,3.839,0.063077125,1,1.37,0.022509941,2,5.209,0.085587066,34.975,1,8.208,0.234681916,1,1.027,0.029363831,2,9.235,0.264045747,0,0,0,1,12.739,0.364231594,1,12.739,0.364231594
ALF2-1G3Y.2.2,,16.244,50.175,6,7.878,0.157010463,1,1.348,0.026865969,7,9.226,0.183876432,0,0,0,2,5.872,0.117030394,2,5.872,0.117030394,27.097,2,7.61,0.280842898,1,0.314,0.011587999,3,7.924,0.292430896,0,0,0,2,6.228,0.229840942,2,6.228,0.229840942
ALF2-1O2O.1.1,,17.818,59.507,3,13.145,0.220898382,1,2.696,0.045305594,4,15.841,0.266203976,1,4.709,0.079133547,1,4.525,0.076041474,2,9.234,0.155175021,36.631,1,11.249,0.307089624,0,0,0,1,11.249,0.307089624,0,0,0,1,12.772,0.34866643,1,12.772,0.34866643
AHF2-1Y2G.2.1,y,17.725,59.207,4,19.574,0.3306028,1,4.901,0.082777374,5,24.475,0.413380175,1,6.698,0.113128515,2,6.738,0.113804111,3,13.436,0.226932626,30.81,1,2.179,0.070723791,0,0,0,1,2.179,0.070723791,1,4.346,0.141058098,0,0,0,1,4.346,0.141058098
AHF2-1G4G.1.6,,17.99,57.153,7,11.543,0.201966651,0,0,0,7,11.543,0.201966651,0,0,0,1,8.739,0.152905359,1,8.739,0.152905359,28.046,1,9.78,0.348712829,0,0,0,1,9.78,0.348712829,0,0,0,1,16.66,0.594024103,1,16.66,0.594024103
ALF2-1G3P.4.3,,17.82,57.406,9,25.61,0.446120615,2,3.39,0.059053061,11,29,0.505173675,1,0.283,0.004929798,2,9.88,0.172107445,3,10.163,0.177037243,32.282,2,1.513,0.046868224,0,0,0,2,1.513,0.046868224,0,0,0,1,16.544,0.512483737,1,16.544,0.512483737
ALF2-3G4G.3.7,,17.769,56.037,5,11.52,0.205578457,3,2.59,0.046219462,8,14.11,0.251797919,1,2.23,0.039795135,3,6.527,0.116476614,4,8.757,0.156271749,30.856,2,4.084,0.132356754,0,0,0,2,4.084,0.132356754,1,2.394,0.077586207,1,1.958,0.063456054,2,4.352,0.141042261
AHF2-1G4P.3.1,,17.732,59.052,3,11.658,0.197419224,2,1.907,0.032293572,5,13.565,0.229712796,0,0,0,3,5.359,0.090750525,3,5.359,0.090750525,33.575,1,2.634,0.078451229,0,0,0,1,2.634,0.078451229,0,0,0,0,0,0,0,0,0
AHF2-1Y3O.4.1,,19.141,68.582,4,23.807,0.3471319,1,3.545,0.051689948,5,27.352,0.398821848,1,8.855,0.129115511,1,1.407,0.020515587,2,10.262,0.149631099,34.551,2,12.395,0.358745044,1,0.623,0.018031316,3,13.018,0.37677636,0,0,0,1,20.087,0.581372464,1,20.087,0.581372464
ALF2-1P4G.1.2,,18.815,64.177,5,11.187,0.174314786,0,0,0,5,11.187,0.174314786,1,0.783,0.012200633,2,3.454,0.053819904,3,4.237,0.066020537,35.739,1,3.492,0.097708386,0,0,0,1,3.492,0.097708386,0,0,0,1,4.477,0.125269314,1,4.477,0.125269314
ALF2-1P4P.3.1,,17.736,59.05,6,19.125,0.323878069,0,0,0,6,19.125,0.323878069,1,7.795,0.132006774,2,7.222,0.122303133,3,15.017,0.254309907,36.207,2,11.856,0.327450493,0,0,0,2,11.856,0.327450493,0,0,0,1,16.172,0.446653962,1,16.172,0.446653962
AHF2-1Y3O.3.7,,15.843,45.876,3,8.226,0.179309443,1,2.157,0.047018049,4,10.383,0.226327491,0,0,0,3,6.663,0.145239341,3,6.663,0.145239341,25.598,4,11.044,0.431439956,0,0,0,4,11.044,0.431439956,0,0,0,2,15.537,0.606961481,2,15.537,0.606961481
AHF2-1O3P.2.5,,17.021,56.578,2,4.511,0.079730637,2,8.217,0.145233129,4,12.728,0.224963767,1,1.893,0.033458235,2,6.663,0.117766623,3,8.556,0.151224858,33.168,1,0.476,0.014351182,0,0,0,1,0.476,0.014351182,0,0,0,1,5.934,0.178907381,1,5.934,0.178907381
ALF2-1G3P.5.5,,16.794,51.302,8,9.032,0.176055514,1,0.088,0.001715333,9,9.12,0.177770847,0,0,0,3,8.086,0.157615687,3,8.086,0.157615687,29.139,1,2.759,0.0946841,1,4.591,0.157555167,2,7.35,0.252239267,0,0,0,1,6.62,0.227186932,1,6.62,0.227186932
ALF2-3G4G.3.11,,15.962,47.274,4,10.872,0.229978424,1,1.73,0.036595169,5,12.602,0.266573592,0,0,0,3,5.774,0.122139019,3,5.774,0.122139019,27.098,1,4.622,0.170566093,0,0,0,1,4.622,0.170566093,1,1.771,0.065355377,0,0,0,1,1.771,0.065355377
AHF2-1O3Y.2.1,,18.262,59.409,3,9.753,0.164167045,2,7.573,0.127472269,5,17.326,0.291639314,0,0,0,2,5.104,0.085912909,2,5.104,0.085912909,33.506,0,0,0,0,0,0,0,0,0,0,0,0,0,0,0,0,0,0
AHF2-1G4P.4.1,,18.522,62.611,5,9.393,0.150021562,0,0,0,5,9.393,0.150021562,1,1.779,0.028413538,2,4.407,0.070386993,3,6.186,0.09880053,35.661,0,0,0,0,0,0,0,0,0,0,0,0,0,0,0,0,0,0
ALF2-1O2G.1.2,,21.088,81.893,4,11.897,0.145274932,0,0,0,4,11.897,0.145274932,0,0,0,1,3.791,0.046292113,1,3.791,0.046292113,41.459,2,4.369,0.10538122,0,0,0,2,4.369,0.10538122,0,0,0,1,7.752,0.186979908,1,7.752,0.186979908
ALF2-1O3O.2.1,,20.1,74.377,3,10.771,0.144816274,3,6.565,0.088266534,6,17.336,0.233082808,0,0,0,2,4.983,0.066996518,2,4.983,0.066996518,41.585,2,6.842,0.16453048,0,0,0,2,6.842,0.16453048,1,10.056,0.241817963,1,6.339,0.152434772,2,16.395,0.394252735
AHF2-1O3Y.2.5,,18.609,63.282,5,20.845,0.329398565,1,2.951,0.046632534,6,23.796,0.376031099,0,0,0,3,5.603,0.088540185,3,5.603,0.088540185,31.443,1,1.211,0.038514137,0,0,0,1,1.211,0.038514137,0,0,0,0,0,0,0,0,0
AHF2-1Y2P.5.1,,20.236,74.017,5,10.447,0.141143251,2,8.422,0.113784671,7,18.869,0.254927922,0,0,0,3,16.291,0.220098086,3,16.291,0.220098086,39.45,0,0,0,0,0,0,0,0,0,0,0,0,0,0,0,0,0,0
ALF2-1G3Y.2.4,,16.206,49.298,4,9.998,0.202807416,0,0,0,4,9.998,0.202807416,0,0,0,2,5.423,0.110004463,2,5.423,0.110004463,35.075,2,7.415,0.211404134,0,0,0,2,7.415,0.211404134,0,0,0,2,11.274,0.321425517,2,11.274,0.321425517
ALF2-3G4G.3.8,,17.303,52.644,7,16.476,0.312970139,1,0.478,0.009079857,8,16.954,0.322049996,1,0.439,0.008339032,4,2.791,0.053016488,5,3.23,0.06135552,30.406,1,3.847,0.126521081,0,0,0,1,3.847,0.126521081,0,0,0,1,2.219,0.072979017,1,2.219,0.072979017
AHF2-1P3G.2.3,,15.195,43.127,4,6.5,0.150717648,0,0,0,4,6.5,0.150717648,0,0,0,2,0.525,0.012173348,2,0.525,0.012173348,23.061,0,0,0,0,0,0,0,0,0,0,0,0,0,0,0,0,0,0
AHF2-1O3P.3.1,,16.623,52.242,4,6.86,0.131311971,2,4.49,0.085946174,6,11.35,0.217258145,1,1.631,0.031220091,2,1.911,0.036579763,3,3.542,0.067799855,33.566,1,4.731,0.140946196,0,0,0,1,4.731,0.140946196,0,0,0,1,4.426,0.13185962,1,4.426,0.13185962
ALF2-1O2G.2.3,,16.939,51.886,4,10.009,0.192903673,0,0,0,4,10.009,0.192903673,1,4.212,0.081177967,1,2.453,0.047276722,2,6.665,0.128454689,28.91,1,3.724,0.128813559,0,0,0,1,3.724,0.128813559,1,4.618,0.159737115,0,0,0,1,4.618,0.159737115
ALF2-1P3G.2.2,,18.285,63.449,6,12.973,0.204463427,0,0,0,6,12.973,0.204463427,0,0,0,2,4.756,0.07495784,2,4.756,0.07495784,39.56,2,2.692,0.068048534,0,0,0,2,2.692,0.068048534,0,0,0,1,6.57,0.166076845,1,6.57,0.166076845
AHF2-1Y3Y.1.2,,18.153,57.762,5,20.009,0.34640421,2,5.054,0.08749697,7,25.063,0.433901181,0,0,0,3,1.887,0.032668536,3,1.887,0.032668536,31.834,2,6.704,0.210592448,0,0,0,2,6.704,0.210592448,0,0,0,1,11.107,0.348903688,1,11.107,0.348903688
AHF2-1G4O.1.2,,18.314,61.396,3,10.34,0.16841488,3,6.828,0.111212457,6,17.168,0.279627337,2,12.823,0.208857255,1,0.747,0.012166916,3,13.57,0.221024171,32.642,2,8.303,0.254365541,0,0,0,2,8.303,0.254365541,0,0,0,1,19.159,0.586943202,1,19.159,0.586943202
ALF2-1O3O.2.2,,18.424,60.152,3,9.829,0.163402713,1,0.853,0.014180742,4,10.682,0.177583455,0,0,0,1,1.144,0.019018487,1,1.144,0.019018487,37.777,1,13.047,0.345368875,0,0,0,1,13.047,0.345368875,0,0,0,1,5.656,0.14972073,1,5.656,0.14972073
ALF2-3G4G.2.3,,17.131,51.794,6,12.655,0.24433332,1,0.603,0.011642275,7,13.258,0.255975596,0,0,0,3,6.924,0.133683438,3,6.924,0.133683438,33.274,2,12.742,0.382941636,0,0,0,2,12.742,0.382941636,0,0,0,1,13.279,0.399080363,1,13.279,0.399080363
AHF2-1O3Y.1.2,,17.863,62.455,3,10.242,0.163990073,1,7.132,0.11419422,4,17.374,0.278184293,0,0,0,2,5.287,0.08465295,2,5.287,0.08465295,30.588,1,0.551,0.0180136,0,0,0,1,0.551,0.0180136,0,0,0,0,0,0,0,0,0
AHF2-1G4P.2.2,,16.886,50.817,6,8.577,0.1687821,1,2.269,0.044650412,7,10.846,0.213432513,1,0.468,0.009209517,3,6.289,0.123757798,4,6.757,0.132967314,30.32,1,2.238,0.073812665,0,0,0,1,2.238,0.073812665,0,0,0,0,0,0,0,0,0
ALF2-1G3Y.3.4,,15.602,45.795,4,8.941,0.195239655,0,0,0,4,8.941,0.195239655,0,0,0,2,5.844,0.127612185,2,5.844,0.127612185,26.504,2,3.775,0.142431331,0,0,0,2,3.775,0.142431331,0,0,0,2,6.091,0.229814368,2,6.091,0.229814368
ALF2-1O2O.1.2,,18.124,61.776,4,16.176,0.261849262,0,0,0,4,16.176,0.261849262,2,6.456,0.104506605,2,8.785,0.14220733,4,15.241,0.246713934,35.027,1,11.38,0.324892226,0,0,0,1,11.38,0.324892226,0,0,0,1,14.454,0.412653096,1,14.454,0.412653096
AHF2-1Y3O.3.6,,16.353,45.885,3,9.128,0.198932113,0,0,0,3,9.128,0.198932113,1,5.161,0.112476844,2,2.268,0.049427918,3,7.429,0.161904762,27.81,1,13.675,0.491729594,0,0,0,1,13.675,0.491729594,0,0,0,1,15.978,0.574541532,1,15.978,0.574541532
AHF2-1Y2P.4.2,,16.777,52.997,6,16.094,0.303677567,0,0,0,6,16.094,0.303677567,0,0,0,3,4.84,0.091325924,3,4.84,0.091325924,24.97,1,1.893,0.075810973,0,0,0,1,1.893,0.075810973,0,0,0,0,0,0,0,0,0
ALF2-1P3G.4.6,,15.64,47.523,6,9.934,0.209035625,0,0,0,6,9.934,0.209035625,1,3.427,0.072112451,4,6.588,0.138627612,5,10.015,0.210740063,28.22,2,3.449,0.122218285,0,0,0,2,3.449,0.122218285,0,0,0,1,6.597,0.233770376,1,6.597,0.233770376
ALF2-1O3O.4.8,,16.344,45.851,7,14.039,0.306187433,0,0,0,7,14.039,0.306187433,1,0.36,0.007851519,2,13.344,0.291029639,3,13.704,0.298881159,27.43,1,7.769,0.28323004,0,0,0,1,7.769,0.28323004,0,0,0,1,5.699,0.207765221,1,5.699,0.207765221
AHF2-1Y3O.5.8,,18.741,64.871,4,17.164,0.264586641,1,2.658,0.040973625,5,19.822,0.305560266,0,0,0,2,6.745,0.103975582,2,6.745,0.103975582,37.461,1,16.049,0.428418889,0,0,0,1,16.049,0.428418889,0,0,0,1,19.716,0.52630736,1,19.716,0.52630736
AHF2-1G4G.2.4,,18.302,61.031,5,12.128,0.198718684,2,6.057,0.099244646,7,18.185,0.29796333,0,0,0,1,4.104,0.067244515,1,4.104,0.067244515,32.908,2,10.294,0.312811474,0,0,0,2,10.294,0.312811474,0,0,0,1,15.411,0.468305579,1,15.411,0.468305579
ALF2-1G3P.5.4,,17.766,58.015,5,9.751,0.168077221,2,3.721,0.064138585,7,13.472,0.232215806,0,0,0,3,10.716,0.184710851,3,10.716,0.184710851,34.773,2,6.495,0.186782849,1,1.517,0.043625802,3,8.012,0.23040865,0,0,0,1,10.048,0.288959825,1,10.048,0.288959825
ALF2-3G4G.2.6,,18.317,62.483,5,20.523,0.32845734,0,0,0,5,20.523,0.32845734,1,7.729,0.123697646,2,3.677,0.058848007,3,11.406,0.182545652,36.409,1,6.028,0.16556346,0,0,0,1,6.028,0.16556346,0,0,0,1,3.915,0.107528358,1,3.915,0.107528358
AHF2-1O3Y.1.1,,19.426,72.172,4,14.932,0.206894641,2,10.885,0.150820263,6,25.817,0.357714903,0,0,0,3,5.897,0.081707587,3,5.897,0.081707587,37.86,1,1.268,0.033491812,0,0,0,1,1.268,0.033491812,0,0,0,0,0,0,0,0,0
AHF2-1G4G.3.1,,17.755,58.614,5,14.084,0.240283891,1,1.847,0.031511243,6,15.931,0.271795134,1,7.747,0.132169789,0,0,0,1,7.747,0.132169789,32.176,1,12.563,0.390446295,0,0,0,1,12.563,0.390446295,0,0,0,1,19.832,0.61636002,1,19.832,0.61636002
ALF2-1G3P.5.1,,17.765,56.612,5,9.744,0.172118985,3,7.185,0.126916555,8,16.929,0.29903554,0,0,0,3,13.543,0.239224899,3,13.543,0.239224899,33.69,1,3.018,0.089581478,1,5.325,0.158058771,2,8.343,0.247640249,0,0,0,1,10.491,0.311398041,1,10.491,0.311398041
ALF2-1P4P.4.2,,16.992,52.012,3,15.64,0.300699838,1,0.634,0.012189495,4,16.274,0.312889333,1,5.488,0.105514112,2,4.194,0.080635238,3,9.682,0.18614935,30.372,1,6.424,0.211510602,0,0,0,1,6.424,0.211510602,1,9.736,0.320558409,0,0,0,1,9.736,0.320558409
AHF2-1Y3O.6.13,,18.323,59.882,4,4.802,0.080191042,3,6.587,0.109999666,7,11.389,0.190190708,1,0.96,0.016031529,3,6.117,0.102150897,4,7.077,0.118182425,31.149,1,9.536,0.306141449,0,0,0,1,9.536,0.306141449,0,0,0,1,16.443,0.527882115,1,16.443,0.527882115
AHF2-1G4P.5.5,,17.501,56.074,6,7.671,0.13680137,2,1.696,0.030245747,8,9.367,0.167047116,1,0.623,0.011110319,2,3.033,0.054089239,3,3.656,0.065199558,30.036,1,2.259,0.075209748,0,0,0,1,2.259,0.075209748,1,4.184,0.139299507,0,0,0,1,4.184,0.139299507
ALF2-1O2G.3.5,y,19.534,72.126,4,13.576,0.18822616,1,4.375,0.060657738,5,17.951,0.248883898,0,0,0,2,3.152,0.043701301,2,3.152,0.043701301,32.616,1,2.46,0.075423105,0,0,0,1,2.46,0.075423105,0,0,0,2,2.27,0.069597743,2,2.27,0.069597743
ALF2-1O3O.4.6,,18.207,59.514,3,9.476,0.15922304,1,0.91,0.01529052,4,10.386,0.17451356,0,0,0,2,3.64,0.06116208,2,3.64,0.06116208,30.081,1,10.695,0.355540042,0,0,0,1,10.695,0.355540042,1,1.685,0.056015425,1,3.811,0.126691267,2,5.496,0.182706692
AHF2-1Y3O.5.5,,16.824,53.17,4,10.144,0.190784277,2,4.034,0.075869851,6,14.178,0.266654128,1,5.825,0.10955426,2,2.577,0.048467181,3,8.402,0.158021441,29.362,1,10.321,0.351508753,0,0,0,1,10.321,0.351508753,0,0,0,1,13.437,0.457632314,1,13.437,0.457632314
AHF2-1G4O.2.1,,15.795,45.296,3,8.165,0.180258742,1,0.389,0.008587955,4,8.554,0.188846697,1,4.56,0.100671141,1,3.714,0.081993995,2,8.274,0.182665136,29.419,1,7.906,0.26873789,0,0,0,1,7.906,0.26873789,0,0,0,1,12.041,0.409293314,1,12.041,0.409293314
ALF2-1O3O.3.5,,19.579,68.021,4,18.136,0.266623543,1,0.831,0.012216815,5,18.967,0.278840358,1,7.683,0.112950412,1,6.278,0.092295027,2,13.961,0.205245439,29.58,1,10.4,0.351588911,0,0,0,1,10.4,0.351588911,0,0,0,1,11.233,0.379749831,1,11.233,0.379749831
ALF2-1G3P.5.3,,16.826,52.373,5,8.931,0.170526798,2,2.4,0.045825139,7,11.331,0.216351937,0,0,0,2,12.279,0.234452867,2,12.279,0.234452867,32.015,2,4.467,0.139528346,0,0,0,2,4.467,0.139528346,0,0,0,1,5.731,0.179009839,1,5.731,0.179009839
AHF2-1O3Y.4.2,,19.246,71.232,5,13.8,0.193733154,2,10.315,0.144808513,7,24.115,0.338541667,0,0,0,2,4.799,0.067371406,2,4.799,0.067371406,37.072,1,0.201,0.005421882,0,0,0,1,0.201,0.005421882,0,0,0,0,0,0,0,0,0
AHF2-1P3G.4.2,,18.137,60.529,4,7.894,0.130416825,3,9.201,0.15200978,7,17.095,0.282426605,2,10.861,0.179434651,3,5.983,0.098845182,5,16.844,0.278279833,34.199,0,0,0,0,0,0,0,0,0,0,0,0,0,0,0,0,0,0
ALF2-1P4O.4.3,,19.333,67.125,4,12.706,0.189288641,1,4.923,0.073340782,5,17.629,0.262629423,1,8.491,0.126495345,1,2.405,0.035828678,2,10.896,0.162324022,35.294,1,13.185,0.373576245,0,0,0,1,13.185,0.373576245,0,0,0,1,13.718,0.388677962,1,13.718,0.388677962
ALF2-3G4G.4.4,,17.784,57.525,5,11.662,0.202729248,0,0,0,5,11.662,0.202729248,1,2.44,0.042416341,3,13.83,0.24041721,4,16.27,0.282833551,33.249,4,11.837,0.356010707,0,0,0,4,11.837,0.356010707,0,0,0,2,16.663,0.50115793,2,16.663,0.50115793
AHF2-1O3Y.4.6,,18.262,62.63,4,9.655,0.154159349,2,9.286,0.148267603,6,18.941,0.302426952,0,0,0,3,4.57,0.072968226,3,4.57,0.072968226,32.355,1,0.722,0.022314944,0,0,0,1,0.722,0.022314944,0,0,0,0,0,0,0,0,0
ALF2-1O2G.2.1,,18.105,60.368,11,10.498,0.17390008,1,0.221,0.00366088,12,10.719,0.177560959,1,3.065,0.050771932,1,9.018,0.149383779,2,12.083,0.200155712,34.265,1,1.695,0.049467387,0,0,0,1,1.695,0.049467387,0,0,0,1,7.026,0.205048884,1,7.026,0.205048884
ALF2-1G3Y.3.1,,17.503,57.599,6,14.379,0.249639751,1,2.542,0.044132711,7,16.921,0.293772461,0,0,0,2,9.277,0.161061824,2,9.277,0.161061824,36.889,2,14.925,0.404592155,0,0,0,2,14.925,0.404592155,0,0,0,1,13.865,0.375857302,1,13.865,0.375857302
AHF2-1Y2G.3.9,,17.11,52.149,2,7.955,0.152543673,4,11.473,0.220004219,6,19.428,0.372547892,1,3.469,0.06652093,2,3.799,0.072848952,3,7.268,0.139369882,27.869,1,0.449,0.016111091,1,0.961,0.034482759,2,1.41,0.05059385,1,2.825,0.10136711,0,0,0,1,2.825,0.10136711
AHF2-1Y3O.6.9,c,19.545,72.854,5,10.82,0.148516211,3,7.038,0.096604167,8,17.858,0.245120378,2,1.887,0.025901117,2,5.756,0.07900733,4,7.643,0.104908447,37.68,3,11.201,0.297266454,0,0,0,3,11.201,0.297266454,0,0,0,2,18.732,0.497133758,2,18.732,0.497133758
ALF2-1P4O.5.2,,17.963,57.581,2,1.604,0.027856411,2,4.891,0.084941213,4,6.495,0.112797624,1,3.034,0.052690992,1,3.26,0.056615898,2,6.294,0.109306889,34.706,1,14.469,0.416901977,0,0,0,1,14.469,0.416901977,0,0,0,1,22.169,0.638765631,1,22.169,0.638765631
ALF2-1O2O.2.6,,17.621,54.005,3,8.964,0.165984631,4,7.784,0.144134802,7,16.748,0.310119433,2,3.622,0.067067864,1,4.517,0.083640404,3,8.139,0.150708268,34.402,1,5.292,0.153828266,0,0,0,1,5.292,0.153828266,1,10.119,0.294139876,0,0,0,1,10.119,0.294139876
AHF2-1G4P.3.4,,15.405,41.612,5,5.433,0.130563299,3,4.985,0.119797174,8,10.418,0.250360473,0,0,0,1,1.504,0.03614342,1,1.504,0.03614342,20.302,1,2.142,0.105506847,0,0,0,1,2.142,0.105506847,0,0,0,0,0,0,0,0,0
AHF2-1Y2G.3.14,,17.209,54.793,5,10.55,0.192542843,2,9.309,0.169893965,7,19.859,0.362436808,1,2.202,0.040187615,2,5.039,0.091964302,3,7.241,0.132151917,30.149,0,0,0,1,0.26,0.008623835,1,0.26,0.008623835,1,2.674,0.088692826,0,0,0,1,2.674,0.088692826
ALF2-1G3Y.4.2,,15.492,42.948,3,7.851,0.182802459,3,2.529,0.058885163,6,10.38,0.241687622,1,1.643,0.038255565,2,4.188,0.097513272,3,5.831,0.135768837,25.483,1,14.208,0.557548169,0,0,0,1,14.208,0.557548169,0,0,0,1,14.495,0.56881058,1,14.495,0.56881058
ALF2-1P2Y.2.11,,15.527,43.369,6,7.041,0.162350988,1,1.058,0.024395305,7,8.099,0.186746293,0,0,0,1,2.837,0.065415389,1,2.837,0.065415389,21.511,3,3.121,0.145088559,0,0,0,3,3.121,0.145088559,1,3.399,0.15801218,0,0,0,1,3.399,0.15801218
AHF2-1Y2G.3.1,,18.35,61.523,4,9.958,0.161858167,2,10.525,0.171074232,6,20.483,0.332932399,1,0.989,0.016075289,2,5.104,0.082960844,3,6.093,0.099036133,33.293,1,1.855,0.055717418,0,0,0,1,1.855,0.055717418,0,0,0,1,4.205,0.126302826,1,4.205,0.126302826
AHF2-1Y3O.6.1,,18.347,59.996,6,10.51,0.175178345,2,3.114,0.05190346,8,13.624,0.227081805,0,0,0,3,7.366,0.122774852,3,7.366,0.122774852,34.116,1,10.38,0.304256068,0,0,0,1,10.38,0.304256068,0,0,0,1,17.236,0.505217493,1,17.236,0.505217493
ALF2-1P3G.3.1,,19.696,69.821,5,9.584,0.137265293,2,4.628,0.066283783,7,14.212,0.203549075,1,1.946,0.027871271,4,11.685,0.167356526,5,13.631,0.195227797,40.954,2,3.442,0.084045514,0,0,0,2,3.442,0.084045514,0,0,0,1,7.869,0.192142404,1,7.869,0.192142404
ALF2-1O3O.3.1,,18.81,63.356,5,13.697,0.216191047,1,2.687,0.042411137,6,16.384,0.258602184,0,0,0,2,5.711,0.090141423,2,5.711,0.090141423,39.207,1,15.887,0.405208254,0,0,0,1,15.887,0.405208254,0,0,0,1,18.668,0.476139465,1,18.668,0.476139465
AHF2-1Y3O.4.3,,19.447,66.866,6,14.577,0.218003171,1,4.286,0.064098346,7,18.863,0.282101516,1,0.669,0.010005085,2,4.063,0.060763318,3,4.732,0.070768402,36.198,1,17.342,0.479087242,0,0,0,1,17.342,0.479087242,0,0,0,1,22.653,0.625808056,1,22.653,0.625808056
AHF2-1O3Y.4.11,,18.079,63.089,4,6.447,0.102188971,0,0,0,4,6.447,0.102188971,1,0.533,0.008448382,2,4.997,0.079205567,3,5.53,0.087653949,34.19,1,0.874,0.02556303,0,0,0,1,0.874,0.02556303,0,0,0,0,0,0,0,0,0
ALF2-3G4G.3.2,,17.236,55.2,6,8.802,0.159456522,2,6.042,0.109456522,8,14.844,0.268913043,2,7.934,0.143731884,2,1.958,0.035471014,4,9.892,0.179202899,32.128,1,3.003,0.093469871,0,0,0,1,3.003,0.093469871,0,0,0,1,2.868,0.089267928,1,2.868,0.089267928
ALF2-1P4O.4.1,,19.366,64.349,4,5.656,0.087895694,3,5.094,0.079162069,7,10.75,0.167057763,2,4.998,0.077670205,0,0,0,2,4.998,0.077670205,35.735,2,14.242,0.398544844,0,0,0,2,14.242,0.398544844,0,0,0,1,17.68,0.494753043,1,17.68,0.494753043
AHF2-1O3Y.1.4,,20.003,73.864,4,17.136,0.231993935,3,7.682,0.10400195,7,24.818,0.335995884,0,0,0,3,5.73,0.077575003,3,5.73,0.077575003,38.418,1,0.958,0.024936228,0,0,0,1,0.958,0.024936228,1,2.802,0.072934562,0,0,0,1,2.802,0.072934562
AHF2-1P3G.5.8,,18.405,61.989,3,6.086,0.098178709,3,10.936,0.176418397,6,17.022,0.274597106,0,0,0,2,4.489,0.072416074,2,4.489,0.072416074,33.641,0,0,0,0,0,0,0,0,0,0,0,0,0,0,0,0,0,0
ALF2-1G3P.6.1,,21.951,85.251,3,7.13,0.083635383,2,10.267,0.120432605,5,17.397,0.204067987,1,11.001,0.129042475,2,11.874,0.139282824,3,22.875,0.268325298,47.166,2,13.995,0.296717975,1,0.186,0.003943519,3,14.181,0.300661493,0,0,0,1,26.935,0.571068142,1,26.935,0.571068142
ALF2-1O3O.6.2,,20.349,72.553,3,6.071,0.08367676,3,10.428,0.143729412,6,16.499,0.227406172,3,12.686,0.174851488,0,0,0,3,12.686,0.174851488,37.425,2,5.82,0.155511022,0,0,0,2,5.82,0.155511022,0,0,0,1,13.442,0.359171677,1,13.442,0.359171677
AHF2-1O3Y.3.1,,18.547,63.305,6,16.889,0.266787773,0,0,0,6,16.889,0.266787773,0,0,0,3,6.078,0.096011374,3,6.078,0.096011374,36.267,0,0,0,0,0,0,0,0,0,0,0,0,0,0,0,0,0,0
AHF2-1Y3O.7.4,,18.608,63.2,6,10.721,0.169636076,1,4.136,0.065443038,7,14.857,0.235079114,0,0,0,3,7.695,0.121756329,3,7.695,0.121756329,35.554,1,12.895,0.362687743,0,0,0,1,12.895,0.362687743,0,0,0,1,19.554,0.549980312,1,19.554,0.549980312
ALF2-1P2Y.2.9,,17.385,53.756,3,3.554,0.06611355,3,7.314,0.136059231,6,10.868,0.202172781,0,0,0,0,0,0,0,0,0,31.765,2,3.648,0.114843381,0,0,0,2,3.648,0.114843381,0,0,0,2,4.781,0.150511569,2,4.781,0.150511569
ALF2-1O2O.2.9,,18.19,58.472,4,5.231,0.089461623,3,5.612,0.095977562,7,10.843,0.185439185,1,5.093,0.087101519,3,3.375,0.057719934,4,8.468,0.144821453,32.647,1,6.315,0.193432781,0,0,0,1,6.315,0.193432781,0,0,0,1,7.706,0.236040065,1,7.706,0.236040065
AHF2-1O3Y.4.8,y,17.904,58.745,4,15.892,0.270525151,2,6.406,0.109047579,6,22.298,0.37957273,0,0,0,3,7.152,0.121746532,3,7.152,0.121746532,30.253,1,0.295,0.009751099,0,0,0,1,0.295,0.009751099,0,0,0,0,0,0,0,0,0
AHF2-1Y2G.3.2,,17.691,57.561,4,13.695,0.237921509,2,7.516,0.130574521,6,21.211,0.36849603,0,0,0,2,5.597,0.097235976,2,5.597,0.097235976,31.995,1,0.377,0.011783091,0,0,0,1,0.377,0.011783091,0,0,0,0,0,0,0,0,0
ALF2-1P3G.3.4,,18.053,57.882,9,16.734,0.289105421,0,0,0,9,16.734,0.289105421,0,0,0,4,11.709,0.202290868,4,11.709,0.202290868,35.781,2,4.053,0.113272407,0,0,0,2,4.053,0.113272407,0,0,0,1,7.467,0.208686174,1,7.467,0.208686174
ALF2-3G4G.4.1,,18.767,64.564,6,12.622,0.195495942,3,4.217,0.065315036,9,16.839,0.260810978,1,0.318,0.004925345,5,12.529,0.194055511,6,12.847,0.198980856,37.878,2,19.927,0.526083743,0,0,0,2,19.927,0.526083743,0,0,0,2,17.292,0.456518296,2,17.292,0.456518296
AHF2-1Y3O.6.10,,19.07,66.781,4,5.336,0.079902966,4,7.099,0.106302691,8,12.435,0.186205657,0,0,0,3,6.674,0.099938605,3,6.674,0.099938605,38.809,1,15.221,0.39220284,0,0,0,1,15.221,0.39220284,0,0,0,1,23.72,0.611198433,1,23.72,0.611198433
AHF2-1Y2G.3.10,c,17.786,57.443,2,9.26,0.16120328,5,9.79,0.170429817,7,19.05,0.331633097,0,0,0,2,4.277,0.074456418,2,4.277,0.074456418,33.75,1,0.765,0.022666667,0,0,0,1,0.765,0.022666667,0,0,0,0,0,0,0,0,0
ALF2-1P2Y.2.8,,17.606,56.047,3,5.48,0.097775082,2,3.083,0.055007404,5,8.563,0.152782486,2,3.427,0.06114511,0,0,0,2,3.427,0.06114511,29.963,1,1.923,0.064179154,0,0,0,1,1.923,0.064179154,1,1.709,0.057037012,0,0,0,1,1.709,0.057037012
ALF2-1P4G.2.5,,18.833,58.734,2,5.718,0.097354173,2,3.41,0.058058365,4,9.128,0.155412538,1,3.753,0.063898253,2,2.017,0.034341267,3,5.77,0.098239521,34.055,1,3.542,0.104008222,0,0,0,1,3.542,0.104008222,0,0,0,1,5.256,0.15433857,1,5.256,0.15433857
AHF2-1Y3O.5.3,,19.282,68.771,6,12.52,0.182053482,3,2.421,0.035203792,9,14.941,0.217257274,1,5.026,0.073083131,2,1.309,0.019034186,3,6.335,0.092117317,40.306,2,20.269,0.502877983,0,0,0,2,20.269,0.502877983,0,0,0,1,30.431,0.754999256,1,30.431,0.754999256
AHF2-1O3Y.2.3,,18.206,61.538,7,12.553,0.20398778,2,6.051,0.098329487,9,18.604,0.302317267,0,0,0,2,1.864,0.030290227,2,1.864,0.030290227,34.135,1,0.769,0.022528197,0,0,0,1,0.769,0.022528197,0,0,0,0,0,0,0,0,0
ALF2-1P4O.4.2,,18.356,57.686,4,8.485,0.147089415,2,4.212,0.073015983,6,12.697,0.220105398,0,0,0,2,7.398,0.128246022,2,7.398,0.128246022,34.632,1,13.801,0.398504274,0,0,0,1,13.801,0.398504274,0,0,0,1,11.614,0.335354585,1,11.614,0.335354585
ALF2-3G4G.4.3,,19.025,67.464,4,5.225,0.077448713,4,9.26,0.13725839,8,14.485,0.214707103,1,3.748,0.055555556,3,3.804,0.056385628,4,7.552,0.111941183,39.808,1,3.097,0.077798432,0,0,0,1,3.097,0.077798432,0,0,0,1,2.72,0.068327974,1,2.72,0.068327974
AHF2-1Y3O.5.9,,16.02,46.628,7,8.43,0.180792657,3,3.153,0.067620314,10,11.583,0.248412971,0,0,0,3,7.927,0.170005147,3,7.927,0.170005147,27.471,2,9.582,0.348804194,0,0,0,2,9.582,0.348804194,0,0,0,1,16.002,0.582505187,1,16.002,0.582505187
AHF2-1O3Y.1.6,,16.793,52.333,6,12.74,0.243441041,2,2.834,0.054153211,8,15.574,0.297594252,0,0,0,3,7.132,0.136281123,3,7.132,0.136281123,32.465,1,0.468,0.014415524,0,0,0,1,0.468,0.014415524,0,0,0,0,0,0,0,0,0
ALF2-1P2Y.2.10,,15.297,42.124,3,2.617,0.062126104,7,7.926,0.188158769,10,10.543,0.250284873,0,0,0,1,1.197,0.028416105,1,1.197,0.028416105,25.731,2,4.38,0.170222689,0,0,0,2,4.38,0.170222689,1,11.16,0.433718083,0,0,0,1,11.16,0.433718083
ALF2-1O2G.5.5,,16.119,45.863,4,8.119,0.177027233,2,2.864,0.062446853,6,10.983,0.239474086,1,6.228,0.135795739,1,1.475,0.032161001,2,7.703,0.167956741,23.833,1,1.082,0.045399236,0,0,0,1,1.082,0.045399236,0,0,0,1,3.745,0.157135065,1,3.745,0.157135065
AHF2-1Y3O.7.1,,18.752,65.938,4,6.583,0.09983621,2,17.766,0.269434924,6,24.349,0.369271133,1,1.857,0.02816282,2,2.029,0.030771331,3,3.886,0.05893415,33.645,1,17.591,0.522841433,0,0,0,1,17.591,0.522841433,0,0,0,1,19.918,0.592004756,1,19.918,0.592004756
AHF2-1Y2G.4.1,y,15.49,44.729,9,12.016,0.268640032,2,5.423,0.121241253,11,17.439,0.389881285,2,4.262,0.095284938,2,3.236,0.0723468,4,7.498,0.167631738,28.166,2,7.27,0.258112618,0,0,0,2,7.27,0.258112618,0,0,0,1,9.258,0.32869417,1,9.258,0.32869417
ALF2-1O3O.4.2,,18.701,62.302,5,13.65,0.21909409,2,7.891,0.12665725,7,21.541,0.34575134,0,0,0,2,8.699,0.139626336,2,8.699,0.139626336,38.28,1,6.363,0.166222571,0,0,0,1,6.363,0.166222571,1,10.796,0.282027168,1,9.123,0.238322884,2,19.919,0.520350052
ALF2-3G4G.4.2,,19.483,70.59,5,11.842,0.167757473,4,6.101,0.086428673,9,17.943,0.254186145,1,5.32,0.075364783,4,4.963,0.070307409,5,10.283,0.145672192,43.569,3,14.89,0.341756754,0,0,0,3,14.89,0.341756754,0,0,0,2,18.502,0.424659735,2,18.502,0.424659735
AHF2-1Y2P.6.3,,19.128,68.518,4,9.976,0.145596777,2,9.236,0.134796696,6,19.212,0.280393473,0,0,0,2,6.314,0.092150968,2,6.314,0.092150968,32.318,0,0,0,0,0,0,0,0,0,0,0,0,0,0,0,0,0,0
AHF2-1O3Y.5.4,,18.466,64.221,7,16.506,0.257018732,2,3.22,0.050139363,9,19.726,0.307158095,0,0,0,2,3.97,0.061817785,2,3.97,0.061817785,31.377,1,1.672,0.05328744,0,0,0,1,1.672,0.05328744,0,0,0,0,0,0,0,0,0
ALF2-1P3G.5.2,,17.537,57.069,4,9.768,0.171161226,3,4.745,0.083144965,7,14.513,0.254306191,3,0.595,0.010425976,3,4.986,0.087367923,6,5.581,0.097793899,30.504,2,2.483,0.081399161,0,0,0,2,2.483,0.081399161,0,0,0,1,5.23,0.171452924,1,5.23,0.171452924
ALF2-1P4O.5.1,,18.11,59.535,4,6.338,0.106458386,4,10.519,0.176685983,8,16.857,0.283144369,0,0,0,1,2.996,0.050323339,1,2.996,0.050323339,32.373,1,9.089,0.280758657,0,0,0,1,9.089,0.280758657,1,6.512,0.201155284,0,0,0,1,6.512,0.201155284
AHF2-1O3Y.4.3,,18.778,65.712,6,12.975,0.19745252,2,3.353,0.051025688,8,16.328,0.248478208,0,0,0,3,5.443,0.082831142,3,5.443,0.082831142,37.282,0,0,0,0,0,0,0,0,0,0,0,0,0,0,0,0,0,0
AHF2-1Y2P.7.3,,18.679,62.406,4,7.489,0.120004487,2,3.484,0.055827965,6,10.973,0.175832452,1,4.854,0.077780983,3,8.189,0.131221357,4,13.043,0.20900234,35.791,0,0,0,0,0,0,0,0,0,0,0,0,0,0,0,0,0,0
ALF2-1G3O.2.5,,17.944,58.292,3,7.131,0.122332396,0,0,0,3,7.131,0.122332396,0,0,0,1,2.767,0.04746792,1,2.767,0.04746792,32.671,1,1.28,0.039178476,0,0,0,1,1.28,0.039178476,0,0,0,1,6.327,0.193657984,1,6.327,0.193657984
ALF2-1P4O.6.6,y,19.175,62.994,4,5.452,0.086547925,2,8.758,0.139029114,6,14.21,0.225577039,1,5.202,0.082579293,0,0,0,1,5.202,0.082579293,33.973,2,15.94,0.469196126,0,0,0,2,15.94,0.469196126,0,0,0,1,18.679,0.549818974,1,18.679,0.549818974
AHF2-1G4G.4.1,,18.72,63.081,6,14.042,0.222602685,3,7.858,0.124569997,9,21.9,0.347172683,2,11.327,0.179562784,2,1.53,0.02425453,4,12.857,0.203817314,37.331,1,11.668,0.312555249,0,0,0,1,11.668,0.312555249,0,0,0,1,18.537,0.496557821,1,18.537,0.496557821
AHF2-1Y2G.3.7,,17.099,53.871,8,13.978,0.259471701,2,2.805,0.052068831,10,16.783,0.311540532,0,0,0,2,6.289,0.116741846,2,6.289,0.116741846,28.307,1,0.47,0.016603667,0,0,0,1,0.47,0.016603667,0,0,0,0,0,0,0,0,0
ALF2-3G4G.3.4,,17.016,54.593,5,10.511,0.192533841,0,0,0,5,10.511,0.192533841,1,2.222,0.040701189,3,7.662,0.140347664,4,9.884,0.181048852,34.366,1,2.806,0.081650468,0,0,0,1,2.806,0.081650468,0,0,0,1,3.342,0.097247279,1,3.342,0.097247279
ALF2-1O2O.2.5,,18.666,61.51,3,8.082,0.131393269,3,7.56,0.122906844,6,15.642,0.254300114,0,0,0,1,1.76,0.028613234,1,1.76,0.028613234,38.068,1,10.283,0.270121887,0,0,0,1,10.283,0.270121887,1,12.523,0.328963959,1,1.099,0.028869392,2,13.622,0.357833351
AHF2-1O3Y.5.16,,18.332,63.506,5,17.843,0.280965578,1,3.742,0.058923566,6,21.585,0.339889144,0,0,0,2,3.802,0.059868359,2,3.802,0.059868359,33.575,1,0.3,0.00893522,0,0,0,1,0.3,0.00893522,0,0,0,0,0,0,0,0,0
AHF2-1P3G.6.5,,19.582,71.115,5,14.791,0.207987063,1,2.148,0.030204598,6,16.939,0.238191661,2,5.163,0.072600717,2,8.621,0.121226183,4,13.784,0.1938269,39.429,0,0,0,0,0,0,0,0,0,0,0,0,0,0,0,0,0,0
ALF2-1O2O.3.4,,18.83,63.551,3,12.371,0.194662554,3,9.808,0.154332741,6,22.179,0.348995295,2,5.441,0.085616277,1,2.75,0.043272332,3,8.191,0.128888609,36.962,1,3.345,0.09049835,0,0,0,1,3.345,0.09049835,1,6.292,0.170228884,0,0,0,1,6.292,0.170228884
ALF2-1P4O.6.4,,19.218,65.74,5,12.524,0.190508062,2,8.129,0.123653788,7,20.653,0.31416185,1,4.555,0.069288105,3,6.062,0.092211743,4,10.617,0.161499848,38.111,1,15.065,0.395292698,0,0,0,1,15.065,0.395292698,0,0,0,1,17.048,0.447324919,1,17.048,0.447324919
AHF2-1O3Y.4.5,,19.42,70.204,6,14.007,0.199518546,2,14.943,0.21285112,8,28.95,0.412369666,0,0,0,3,6.79,0.096718136,3,6.79,0.096718136,39.663,0,0,0,0,0,0,0,0,0,0,0,0,0,0,0,0,0,0
AHF2-1G4G.6.9,,19.212,67.709,4,8.986,0.132715001,1,8.134,0.12013174,5,17.12,0.252846741,0,0,0,2,5.492,0.081111817,2,5.492,0.081111817,34.862,1,7.28,0.208823361,0,0,0,1,7.28,0.208823361,0,0,0,1,13.219,0.37918077,1,13.219,0.37918077
ALF2-1O3Y.3.14,,17.218,52.666,4,10.653,0.202274712,2,5.517,0.104754491,6,16.17,0.307029203,0,0,0,2,5.278,0.100216458,2,5.278,0.100216458,27.238,1,6.138,0.225346942,0,0,0,1,6.138,0.225346942,1,7.472,0.274322637,0,0,0,1,7.472,0.274322637
ALF2-1O2O.3.8,,18.918,61.635,3,9.848,0.159779346,3,13.116,0.212801168,6,22.964,0.372580514,0,0,0,2,3.976,0.064508802,2,3.976,0.064508802,35.575,1,2.702,0.075952214,0,0,0,1,2.702,0.075952214,0,0,0,0,0,0,0,0,0
AHF2-1G4G.6.1,,18.963,66.218,6,11.595,0.175103446,2,5.784,0.087347851,8,17.379,0.262451297,1,4.045,0.06108611,2,2.186,0.033012172,3,6.231,0.094098281,38.017,1,9.193,0.241812873,0,0,0,1,9.193,0.241812873,0,0,0,1,14.777,0.388694531,1,14.777,0.388694531
AHF2-1O3Y.4.9,,19.076,64.341,6,17.785,0.276417836,1,8.84,0.137392953,7,26.625,0.413810789,0,0,0,3,6.038,0.093843739,3,6.038,0.093843739,36.615,1,0.703,0.019199782,0,0,0,1,0.703,0.019199782,0,0,0,0,0,0,0,0,0
ALF2-1P3G.4.1,,17.929,56.137,6,12.423,0.221297896,4,2.469,0.043981688,10,14.892,0.265279584,2,0.885,0.015765003,2,3.468,0.061777437,4,4.353,0.077542441,36.104,2,4.227,0.11707844,0,0,0,2,4.227,0.11707844,0,0,0,2,10.951,0.303318192,2,10.951,0.303318192
ALF2-1O2O.2.3,,18.882,64.98,4,13.835,0.212911665,2,14.257,0.219405971,6,28.092,0.432317636,2,16.773,0.258125577,1,2.242,0.034502924,3,19.015,0.292628501,33.708,1,3.543,0.10510858,0,0,0,1,3.543,0.10510858,1,6.957,0.206390174,0,0,0,1,6.957,0.206390174
AHF2-1G3P4Y.4.1,,17.505,55.118,5,12.046,0.218549294,2,3.27,0.059327262,7,15.316,0.277876556,2,2.984,0.054138394,1,1.533,0.027813056,3,4.517,0.08195145,30.132,0,0,0,0,0,0,0,0,0,0,0,0,0,0,0,0,0,0
AHF2-1P3G.5.14,,17.076,52.436,5,18.488,0.352582195,2,3.85,0.073422839,7,22.338,0.426005035,0,0,0,2,3.755,0.071611107,2,3.755,0.071611107,28.617,0,0,0,0,0,0,0,0,0,0,0,0,0,0,0,0,0,0
ALF2-1O3Y.3.8,,17.192,53.855,4,7.515,0.139541361,3,2.299,0.042688701,7,9.814,0.182230062,0,0,0,3,8.108,0.150552409,3,8.108,0.150552409,28.231,1,12.676,0.449009954,0,0,0,1,12.676,0.449009954,1,16.701,0.59158372,0,0,0,1,16.701,0.59158372
ALF2-3G4G.3.13,,19.099,66.071,7,10.09,0.152714504,2,11.726,0.177475746,9,21.816,0.33019025,3,17.168,0.259841685,2,4.709,0.071271814,5,21.877,0.331113499,38.642,2,9.373,0.242559909,0,0,0,2,9.373,0.242559909,1,12.417,0.321334299,0,0,0,1,12.417,0.321334299
AHF2-1G4Y.1.1,,18.369,61.338,5,10.014,0.163259317,1,3.321,0.05414262,6,13.335,0.217401937,2,0.638,0.010401383,1,7.364,0.120056083,3,8.002,0.130457465,32.47,1,5.245,0.161533723,0,0,0,1,5.245,0.161533723,0,0,0,3,7.127,0.219494918,3,7.127,0.219494918
AHF2-EXTA.1.1,,17.438,56.247,4,5.57,0.099027504,2,4.335,0.077070777,6,9.905,0.176098281,1,5.511,0.097978559,2,1.034,0.018383203,3,6.545,0.116361762,33.085,5,5.151,0.15568989,0,0,0,5,5.151,0.15568989,0,0,0,1,14.018,0.423696539,1,14.018,0.423696539
ALF2-1P2Y.3.1,,18.128,59.92,3,7.4,0.123497997,1,1.595,0.026618825,4,8.995,0.150116822,0,0,0,0,0,0,0,0,0,35.192,2,6.778,0.192600591,0,0,0,2,6.778,0.192600591,0,0,0,1,4.815,0.136820868,1,4.815,0.136820868
ALF2-1O2O.3.2,,17.476,55.743,4,13.009,0.233374594,2,3.358,0.060240748,6,16.367,0.293615342,1,0.13,0.002332131,1,2.326,0.041727212,2,2.456,0.044059344,32.699,1,7.98,0.24404416,0,0,0,1,7.98,0.24404416,0,0,0,1,5.282,0.161533992,1,5.282,0.161533992
AHF2-1O3Y.5.17,,18.501,62.818,7,18.494,0.294406062,3,6.822,0.108599446,10,25.316,0.403005508,0,0,0,3,5.625,0.089544398,3,5.625,0.089544398,36.767,1,1.448,0.039383142,0,0,0,1,1.448,0.039383142,0,0,0,0,0,0,0,0,0
AHF2-1G4G.6.4,,18.218,59.191,7,11.863,0.200418983,1,1.246,0.021050498,8,13.109,0.22146948,1,6.951,0.117433394,2,1.73,0.029227416,3,8.681,0.14666081,34.218,1,16.77,0.490092934,0,0,0,1,16.77,0.490092934,0,0,0,1,21.294,0.62230405,1,21.294,0.62230405
ALF2-1P4O.6.5,,18.072,58.376,4,8.972,0.153693299,2,5.503,0.094268192,6,14.475,0.247961491,1,5.016,0.085925723,1,1.16,0.01987118,2,6.176,0.105796903,33.859,1,19.093,0.563897339,0,0,0,1,19.093,0.563897339,0,0,0,1,19.733,0.582799256,1,19.733,0.582799256
ALF2-1G3O.2.2,,17.18,56.94,4,11.719,0.205813137,1,1,0.017562346,5,12.719,0.223375483,0,0,0,1,3.137,0.05509308,1,3.137,0.05509308,32.94,1,0.59,0.017911354,0,0,0,1,0.59,0.017911354,0,0,0,1,4.42,0.134183364,1,4.42,0.134183364
AHF2-1O3Y.5.8,,20.276,75.22,7,11.389,0.1514092,4,13.379,0.17786493,11,24.768,0.329274129,0,0,0,3,5.246,0.06974209,3,5.246,0.06974209,40.511,0,0,0,0,0,0,0,0,0,0,0,0,0,0,0,0,0,0
AHF2-1G3Y.1.3,,18.022,58.373,4,8.777,0.150360612,1,1.081,0.018518836,5,9.858,0.168879448,0,0,0,3,6.577,0.112671954,3,6.577,0.112671954,28.382,1,8.144,0.286942428,0,0,0,1,8.144,0.286942428,0,0,0,1,12.872,0.453526883,1,12.872,0.453526883
ALF2-EXTA.2.5,,17.795,57.388,5,7.653,0.133355405,4,9.615,0.167543737,9,17.268,0.300899143,0,0,0,2,6.471,0.112758765,2,6.471,0.112758765,28.061,1,10.964,0.390720217,0,0,0,1,10.964,0.390720217,0,0,0,1,11.896,0.423933573,1,11.896,0.423933573
ALF2-1P4G.3.5,c,16.105,72.073,4,7.637,0.105962011,1,3.717,0.051572711,5,11.354,0.157534722,1,3.956,0.054888793,1,1.587,0.022019342,2,5.543,0.076908135,27.456,2,2.253,0.082058566,0,0,0,2,2.253,0.082058566,0,0,0,1,4.455,0.162259615,1,4.455,0.162259615
AHF2-1Y2P.7.2,,19.828,72.717,8,12.651,0.173975824,4,9.478,0.130340911,12,22.129,0.304316735,0,0,0,3,8.952,0.123107389,3,8.952,0.123107389,35.789,2,2.016,0.056330157,0,0,0,2,2.016,0.056330157,1,2.631,0.073514208,0,0,0,1,2.631,0.073514208
AHF2-1G4G.6.5,,18.161,56.917,9,9.667,0.169843808,2,3.811,0.066957148,11,13.478,0.236800956,0,0,0,1,6.238,0.109598187,1,6.238,0.109598187,30.125,3,11.759,0.390340249,0,0,0,3,11.759,0.390340249,0,0,0,1,18.553,0.61586722,1,18.553,0.61586722
ALF2-1P4G.4.1,,17.159,54.066,4,7.943,0.146913032,1,1.355,0.025061961,5,9.298,0.171974994,2,6.5,0.120223431,0,0,0,2,6.5,0.120223431,30.433,1,2.83,0.092991161,0,0,0,1,2.83,0.092991161,1,3.867,0.127066014,0,0,0,1,3.867,0.127066014
ALF2-1O3Y.4.2,,18.11,59.929,3,8.304,0.138563967,1,4.28,0.071417844,4,12.584,0.209981812,1,6.436,0.107393749,2,5.125,0.085517863,3,11.561,0.192911612,29.04,1,6.567,0.226136364,0,0,0,1,6.567,0.226136364,1,7.822,0.269352617,0,0,0,1,7.822,0.269352617
AHF2-1Y2P.6.4,,17.739,58.359,3,11.726,0.200928734,2,7.335,0.125687555,5,19.061,0.326616289,0,0,0,3,5.458,0.093524563,3,5.458,0.093524563,17.111,1,0.603,0.035240489,0,0,0,1,0.603,0.035240489,0,0,0,0,0,0,0,0,0
AHF2-1G3Y.2.4,,14.616,36.801,5,11.461,0.311431755,2,0.928,0.025216706,7,12.389,0.336648461,0,0,0,3,5.175,0.140621179,3,5.175,0.140621179,17.431,3,3.573,0.204979634,0,0,0,3,3.573,0.204979634,0,0,0,1,9.453,0.542309678,1,9.453,0.542309678
ALF2-1P4O.6.9,,20.195,72.555,3,5.452,0.075142995,4,15.062,0.207594239,7,20.514,0.282737234,1,7.834,0.107973262,0,0,0,1,7.834,0.107973262,35.843,1,16.327,0.455514326,0,0,0,1,16.327,0.455514326,1,11.999,0.334765505,1,5.765,0.160840331,2,17.764,0.495605837
ALF2-1O2G.5.3,,18.024,60.568,6,12.421,0.205075287,0,0,0,6,12.421,0.205075287,3,3.488,0.057588165,2,3.028,0.049993396,5,6.516,0.107581561,33.238,2,7.199,0.216589446,0,0,0,2,7.199,0.216589446,0,0,0,1,1.772,0.053312474,1,1.772,0.053312474
AHF2-EXTB.1.3,,17.788,59.827,5,8.36,0.139736239,0,0,0,5,8.36,0.139736239,1,5.203,0.086967423,2,1.675,0.027997392,3,6.878,0.114964815,37.916,1,6.781,0.178842705,0,0,0,1,6.781,0.178842705,0,0,0,1,9.383,0.247468087,1,9.383,0.247468087
AHF2-1G4Y.1.4,,16.828,50.386,6,10.164,0.201722701,1,0.706,0.014011829,7,10.87,0.215734529,1,3.472,0.06890803,2,3.881,0.077025364,3,7.353,0.145933394,32.541,2,8.746,0.26876863,2,0.349,0.010724932,4,9.095,0.279493562,0,0,0,1,11.316,0.347745921,1,11.316,0.347745921
ALF2-1O3Y.6.3,,17.86,55.29,3,7.108,0.12855851,1,4.337,0.078440948,4,11.445,0.206999457,1,6.615,0.119641888,0,0,0,1,6.615,0.119641888,27.114,1,2.966,0.109389983,0,0,0,1,2.966,0.109389983,1,2.136,0.078778491,1,3.831,0.141292321,2,5.967,0.220070812
ALF2-EXTA.2.3,,17.323,51.113,6,11.711,0.229119793,3,3.758,0.07352337,9,15.469,0.302643163,2,7.623,0.14914014,1,2.793,0.054643633,3,10.416,0.203783773,25.677,3,7.321,0.285118978,1,0.353,0.013747712,4,7.674,0.29886669,1,7.788,0.303306461,1,2.481,0.096623437,2,10.269,0.399929898
AHF2-1O3Y.4.13,,16.917,54.318,8,18.311,0.337107405,0,0,0,8,18.311,0.337107405,0,0,0,3,3.339,0.061471335,3,3.339,0.061471335,33.591,0,0,0,0,0,0,0,0,0,0,0,0,0,0,0,0,0,0
AHF2-1Y3O.5.10,,17.058,53.805,4,8.923,0.165839606,1,1.933,0.035926029,5,10.856,0.201765635,1,2.066,0.038397918,2,2.769,0.051463619,3,4.835,0.089861537,33.733,11,21.703,0.643375923,0,0,0,11,21.703,0.643375923,0,0,0,1,25.386,0.752556843,1,25.386,0.752556843
ALF2-1P4O.9.1,,16.483,50.559,3,10.424,0.206174964,1,4.267,0.084396448,4,14.691,0.290571412,0,0,0,2,2.183,0.043177278,2,2.183,0.043177278,32.36,3,11.027,0.340760198,0,0,0,3,11.027,0.340760198,1,11.548,0.356860321,0,0,0,1,11.548,0.356860321
ALF2-EXTA.2.7,,17.441,50.493,6,16.123,0.319311588,0,0,0,6,16.123,0.319311588,1,4.897,0.09698374,1,3.515,0.06961361,2,8.412,0.16659735,27.328,1,13.945,0.510282494,0,0,0,1,13.945,0.510282494,0,0,0,1,15.995,0.585297131,1,15.995,0.585297131
AHF2-EXTA.2.4,,17.069,53.972,4,8.69,0.161009412,3,1.426,0.026421107,7,10.116,0.18743052,1,2.928,0.054250352,1,1.737,0.032183354,2,4.665,0.086433706,34.397,2,3.658,0.106346484,2,1.117,0.032473762,4,4.775,0.138820246,1,7.671,0.223013635,1,3.414,0.099252842,2,11.085,0.322266477
AHF2-1G4Y.1.6,,16.163,47.86,7,10.485,0.219076473,2,1.574,0.032887589,9,12.059,0.251964062,1,0.887,0.018533222,2,2.063,0.043104889,3,2.95,0.061638111,31.724,2,8.414,0.265225066,0,0,0,2,8.414,0.265225066,0,0,0,2,13.632,0.429706216,2,13.632,0.429706216
ALF2-1O3Y.6.5,,16.546,47.039,3,10.644,0.226280321,2,2.397,0.050957716,5,13.041,0.277238037,1,5.767,0.122600395,1,1.47,0.031250664,2,7.237,0.15385106,22.844,2,5.572,0.243915251,0,0,0,2,5.572,0.243915251,1,5.984,0.261950622,0,0,0,1,5.984,0.261950622
ALF2-EXTA.2.4,,17.08,52.442,4,18.525,0.353247397,1,0.418,0.00797071,5,18.943,0.361218108,1,5.487,0.104629877,1,4.407,0.084035697,2,9.894,0.188665573,37.262,2,15.355,0.412082014,0,0,0,2,15.355,0.412082014,1,17.069,0.458080618,0,0,0,1,17.069,0.458080618
AHF2-EXTA.2.2,y,17.311,55.552,5,9.323,0.167824741,2,6.161,0.110905098,7,15.484,0.278729839,0,0,0,0,0,0,0,0,0,32.402,2,8.105,0.25013888,0,0,0,2,8.105,0.25013888,1,15.255,0.470804271,0,0,0,1,15.255,0.470804271
AHF2-1G4Y.1.2,,17.769,57.612,7,9.281,0.161094911,2,0.738,0.012809831,9,10.019,0.173904742,3,5.048,0.087620635,1,1.053,0.018277442,4,6.101,0.105898077,33.275,3,6.322,0.189992487,2,3.935,0.11825695,5,10.257,0.308249437,1,13.662,0.410578512,0,0,0,1,13.662,0.410578512
ALF2-1P4O.7.1,,17.613,61.001,5,11.109,0.182111769,0,0,0,5,11.109,0.182111769,1,3.364,0.055146637,0,0,0,1,3.364,0.055146637,29.456,2,15.364,0.521591526,0,0,0,2,15.364,0.521591526,0,0,0,1,16.976,0.576317219,1,16.976,0.576317219
ALF2-1P4G.2.2,,18.606,64.758,3,10.856,0.167639519,1,0.589,0.009095401,4,11.445,0.176734921,2,2.885,0.04455048,1,3.599,0.055576145,3,6.484,0.100126625,32.893,1,7.41,0.225275895,0,0,0,1,7.41,0.225275895,1,9.473,0.287994406,0,0,0,1,9.473,0.287994406
AHF2-1Y3O.6.6,,18.069,59.829,5,12.267,0.205034348,2,1.569,0.026224741,7,13.836,0.231259088,1,0.797,0.013321299,1,0.245,0.004095004,2,1.042,0.017416303,38.769,1,13.94,0.359565632,0,0,0,1,13.94,0.359565632,0,0,0,1,23.25,0.599705951,1,23.25,0.599705951
AHF2-EXTB.2.4,,15.856,46.867,3,7.297,0.155695905,2,1.87,0.039900143,5,9.167,0.195596048,2,13.031,0.278042119,2,4.32,0.092175731,4,17.351,0.370217851,27.324,1,5.218,0.190967647,2,0.203,0.007429366,3,5.421,0.198397014,0,0,0,1,6.297,0.230456741,1,6.297,0.230456741
ALF2-1P4G.5.2,,16.507,46.859,2,9.114,0.194498389,3,1.865,0.039800252,5,10.979,0.234298641,2,4.674,0.099746047,1,0.42,0.008963059,3,5.094,0.108709106,27.862,1,2.329,0.083590553,1,0.073,0.002620056,2,2.402,0.086210609,1,4.442,0.159428612,0,0,0,1,4.442,0.159428612
ALF2-EXTA.4.7,,17.092,54.427,6,11.608,0.213276499,4,7.005,0.128704503,10,18.613,0.341981002,1,5.476,0.100611829,3,7.267,0.133518291,4,12.743,0.234130119,32.945,2,11.921,0.3618455,0,0,0,2,11.921,0.3618455,0,0,0,1,15.309,0.464683564,1,15.309,0.464683564
ALF2-1P4G.4.2,,18.733,57.581,4,11.062,0.192111981,2,14.663,0.254649971,6,25.725,0.446761953,1,4.98,0.086486862,1,0.526,0.009134958,2,5.506,0.09562182,30.877,1,1.738,0.056287852,2,4.032,0.130582634,3,5.77,0.186870486,1,6.113,0.197979078,0,0,0,1,6.113,0.197979078
ALF2-EXTA.2.6,,18.845,66.175,6,20.605,0.311371364,3,6.484,0.097982622,9,27.089,0.409353986,0,0,0,2,7.541,0.113955421,2,7.541,0.113955421,27.372,2,10.45,0.381776998,0,0,0,2,10.45,0.381776998,0,0,0,1,14.17,0.517682303,1,14.17,0.517682303
ALF2-1P4G.3.6,,19.074,63.919,3,4.257,0.066599916,4,10.526,0.16467717,7,14.783,0.231277085,2,7.65,0.119682723,1,0.417,0.006523882,3,8.067,0.126206605,37.047,1,2.587,0.069830216,1,2.672,0.072124598,2,5.259,0.141954814,1,4.118,0.111156099,0,0,0,1,4.118,0.111156099
ALF2-1P4O.9.5,,19.126,62.582,4,13.371,0.213655684,2,2.996,0.04787319,6,16.367,0.261528874,2,7.108,0.113578984,1,0.371,0.005928222,3,7.479,0.119507207,36.869,1,17.823,0.48341425,0,0,0,1,17.823,0.48341425,0,0,0,1,19.805,0.53717215,1,19.805,0.53717215
AHF2-EXTB.3.1,,16.54,49.945,7,10.36,0.207428171,2,0.759,0.015196716,9,11.119,0.222624887,1,5.56,0.111322455,3,2.699,0.054039443,4,8.259,0.165361898,25.263,1,4.682,0.185330325,2,1.496,0.059217037,3,6.178,0.244547362,0,0,0,1,4.721,0.186874085,1,4.721,0.186874085
AHF2-1G4Y.3.2,y,16.495,47.476,4,8.837,0.186136153,2,2.014,0.042421434,6,10.851,0.228557587,1,1.851,0.03898812,2,2.565,0.054027298,3,4.416,0.093015418,26.331,1,6.35,0.241160609,1,3.541,0.13448027,2,9.891,0.37564088,0,0,0,1,6.558,0.249060043,1,6.558,0.249060043
ALF2-EXTA.3.2,,19.931,66.657,6,18.933,0.284036185,1,1.071,0.01606733,7,20.004,0.300103515,2,4.33,0.064959419,2,4.629,0.06944507,4,8.959,0.134404489,33.703,2,10.226,0.303415126,0,0,0,2,10.226,0.303415126,0,0,0,1,14.727,0.436964068,1,14.727,0.436964068
ALF2-EXTB.3.1,y,16.812,49.519,7,11.832,0.238938589,1,0.455,0.009188392,8,12.287,0.248126982,1,0.611,0.012338698,2,3.74,0.075526566,3,4.351,0.087865264,24.264,1,1.682,0.069320804,2,0.645,0.026582591,3,2.327,0.095903396,0,0,0,0,0,0,0,0,0